-8.57602 -8.57662
-8.2357 -8.23471
-8.87818 -8.87694
-8.24775 -8.25634
-8.64191 -8.63956
-8.13105 -8.13036
-9.09679 -9.09965
-8.66355 -8.66273
-9.17205 -9.1677
-8.46768 -8.47399
-9.05891 -9.05741
-8.86747 -8.86651
-8.88751 -8.8922
-9.17185 -9.17214
-8.92158 -8.91953
-9.00154 -9.00306
-8.70751 -8.70703
-8.64615 -8.6477
-8.5149 -8.52167
-8.9023 -8.90366
-8.98473 -8.98406
-8.8313 -8.8315
-8.83029 -8.83602
-9.16792 -9.16968
-9.06227 -9.06327
-8.6432 -8.64314
-8.94606 -8.94678
-8.70205 -8.70146
-8.861 -8.86126
-8.77107 -8.77501
-8.38543 -8.38628
-9.00973 -9.00965
-9.0893 -9.08976
-8.95435 -8.95519
-8.99439 -8.99373
-9.15874 -9.15841
-8.78029 -8.78002
-8.7982 -8.79999
-9.14244 -9.14261
-9.02229 -9.02322
-9.06458 -9.06306
-9.15959 -9.15958
-9.14674 -9.14732
-9.02141 -9.02117
-8.9571 -8.95753
-8.99185 -8.99249
-8.85719 -8.85631
-9.00385 -9.00491
-9.15262 -9.1523
-8.99925 -9.00083
-8.77608 -8.77857
-9.09614 -9.09645
-8.99736 -8.99757
-9.02859 -9.0287
-9.02519 -9.02465
-9.05881 -9.05911
-9.10237 -9.10267
-9.09832 -9.0969
-9.11645 -9.1182
-9.10513 -9.10539
-8.98411 -8.98267
-9.15328 -9.15308
-9.11525 -9.11574
-9.01434 -9.01516
-9.12591 -9.12588
-9.17088 -9.17064
-9.09527 -9.09551
-8.9406 -8.94014
-9.15756 -9.15739
-9.13877 -9.13851
-9.01348 -9.01398
-9.21148 -9.21166
-9.08965 -9.09045
-8.98193 -8.98294
-9.06557 -9.06615
-9.1751 -9.17483
-9.05139 -9.05137
-9.05716 -9.05797
-8.77514 -8.77493
-9.01084 -9.01153
-9.04996 -9.05061
-9.11221 -9.11182
-8.98404 -8.98468
-9.09297 -9.093
-9.12162 -9.12214
-8.97022 -8.97068
-8.90393 -8.90398
-9.23395 -9.23389
-9.23395 -9.23386
-9.23395 -9.23389
-9.23395 -9.23382
-9.23395 -9.23381
-9.23395 -9.23449
-9.23395 -9.23411
-9.23395 -9.23388
-9.23391 -9.23371
-9.21971 -9.22064
-9.21318 -9.21089
-9.21496 -9.21334
-9.21936 -9.21963
-9.2192 -9.21931
-9.21961 -9.22006
-9.2139 -9.21185
-9.21802 -9.21715
-9.21752 -9.21662
-9.21319 -9.2109
-9.21389 -9.21183
-9.21716 -9.21611
-9.21975 -9.2208
-9.21725 -9.21627
-9.21958 -9.22034
-9.21971 -9.22064
-9.21987 -9.21952
-9.22001 -9.2197
-9.21944 -9.21898
-9.21906 -9.21848
-9.21616 -9.21493
-9.21613 -9.2149
-9.21984 -9.22032
-9.22857 -9.22925
-9.22865 -9.22924
-9.2306 -9.22967
-9.23007 -9.22946
-9.22848 -9.22927
-9.22879 -9.22928
-9.22827 -9.22901
-9.22958 -9.22941
-9.22826 -9.22891
-9.22938 -9.22931
-9.23085 -9.22973
-9.2313 -9.22969
-9.22958 -9.2294
-9.22823 -9.22891
-9.22878 -9.22928
-9.22908 -9.22928
-9.22939 -9.22913
-9.22866 -9.22924
-9.22908 -9.22926
-9.22824 -9.22897
-9.22726 -9.22813
-9.22703 -9.22774
-9.22707 -9.22771
-9.22672 -9.22702
-9.22634 -9.22536
-9.22561 -9.22387
-9.22706 -9.22742
-9.2265 -9.22583
-9.22682 -9.22674
-9.22711 -9.22788
-9.22689 -9.22756
-9.22713 -9.2277
-9.22661 -9.22646
-9.22573 -9.22408
-9.22676 -9.2268
-9.22686 -9.2267
-9.22724 -9.22812
-9.2265 -9.22553
-9.23107 -9.23144
-9.23094 -9.23125
-9.23095 -9.23125
-9.23029 -9.22973
-9.23033 -9.22936
-9.23061 -9.23073
-9.23092 -9.23142
-9.23048 -9.23053
-9.23029 -9.22972
-9.23103 -9.23144
-9.23141 -9.23154
-9.2303 -9.22967
-9.23106 -9.23133
-9.2312 -9.23146
-9.23039 -9.2303
-9.23076 -9.23126
-9.23078 -9.23099
-9.23042 -9.23033
-9.2308 -9.23133
-9.23073 -9.23111
-9.15212 -9.15161
-8.76636 -8.76789
-8.97305 -8.97452
-9.15455 -9.1544
-9.13219 -9.13216
-8.92379 -8.92355
-9.1191 -9.11923
-8.99576 -8.99628
-9.02811 -9.02895
-9.23395 -9.23442
-9.22985 -9.22946
-9.23044 -9.22885
-9.23106 -9.23127
-9.23046 -9.22878
-9.22617 -9.22495
-9.22618 -9.22496
-9.21372 -9.21154
-9.05101 -9.05128
-9.22923 -9.22929
-9.21406 -9.21209
-9.23081 -9.23133
-9.23395 -9.23425
-9.23395 -9.23401
-9.23395 -9.23388
-9.23395 -9.23384
-9.23395 -9.23382
-9.23301 -9.23267
-9.23395 -9.23426
-9.23395 -9.23397
-9.23395 -9.23389
-9.22683 -9.22743
-9.23246 -9.23243
-9.23395 -9.23385
-9.23395 -9.23382
-9.21921 -9.21932
-9.21975 -9.2208
-9.21614 -9.21492
-9.21975 -9.22064
-9.21684 -9.21577
-9.21789 -9.21712
-9.21469 -9.21294
-9.21972 -9.22096
-9.21971 -9.22105
-9.21968 -9.22069
-9.21782 -9.21707
-9.21238 -9.2098
-9.2151 -9.21353
-9.21865 -9.21827
-9.21878 -9.21834
-9.21725 -9.21627
-9.23144 -9.22975
-9.22843 -9.229
-9.22899 -9.22927
-9.2303 -9.22966
-9.22923 -9.22929
-9.22854 -9.22927
-9.22908 -9.22928
-9.22825 -9.22901
-9.23109 -9.22973
-9.22959 -9.22921
-9.2296 -9.22936
-9.23003 -9.22959
-9.22867 -9.22925
-9.22661 -9.22646
-9.22703 -9.22728
-9.22695 -9.22729
-9.22644 -9.22552
-9.22662 -9.22647
-9.22679 -9.22713
-9.22699 -9.22764
-9.22718 -9.22795
-9.22721 -9.22805
-9.22724 -9.22811
-9.22486 -9.22285
-9.22445 -9.22228
-9.22495 -9.22296
-9.22672 -9.22702
-9.22693 -9.22742
-9.22695 -9.22728
-9.22694 -9.22726
-9.22712 -9.22788
-9.22455 -9.22243
-9.2265 -9.22564
-9.22701 -9.22761
-9.2304 -9.22906
-9.23045 -9.22885
-9.2303 -9.22946
-9.23121 -9.23147
-9.23078 -9.23098
-9.23165 -9.23169
-9.23149 -9.23161
-9.23039 -9.23029
-9.23033 -9.22936
-9.23106 -9.23126
-9.2312 -9.23147
-9.23088 -9.23107
-9.23172 -9.23174
-9.23111 -9.23151
-8.95892 -8.95909
-9.15619 -9.15508
-9.18037 -9.18023
-9.07122 -9.07092
-9.17892 -9.17861
-9.03553 -9.03558
-9.23106 -9.23133
-9.21714 -9.21607
-9.21945 -9.2196
-9.2139 -9.21184
-9.2312 -9.23146
-9.21437 -9.21251
-9.23042 -9.23033
-9.21942 -9.21896
-9.22983 -9.22953
-9.2303 -9.22945
-9.22664 -9.22676
-9.22853 -9.22916
-9.21725 -9.21628
-9.22968 -9.22934
-9.22723 -9.22812
-9.22914 -9.22933
-9.21974 -9.22017
-9.23085 -9.23109
-8.54539 -8.55029
-8.8211 -8.82141
-8.94888 -8.94687
-8.80606 -8.80813
-9.08576 -9.08596
-8.96454 -8.96381
-8.809 -8.81167
-8.59732 -8.59776
-8.96082 -8.96018
-8.93497 -8.93542
-9.08681 -9.08751
-8.90063 -8.90059
-8.79668 -8.79843
-8.91655 -8.91738
-8.96851 -8.97005
-8.99631 -8.99829
-9.08214 -9.08269
-8.77256 -8.77186
-8.98574 -8.97868
-8.69123 -8.68588
-9.09567 -9.09589
-8.82677 -8.82555
-8.90903 -8.90958
-9.03625 -9.03592
-9.09533 -9.09651
-9.06171 -9.06247
-8.93152 -8.92965
-9.21592 -9.21601
-8.78729 -8.78143
-9.23395 -9.23451
-9.09345 -9.09376
-9.10241 -9.103
-9.03609 -9.03621
-9.00646 -9.00664
-9.04139 -9.04146
-9.03535 -9.03541
-8.89499 -8.8943
-8.67854 -8.67912
-9.23174 -9.23166
-9.11742 -9.11339
-9.03786 -9.03864
-9.09542 -9.09532
-8.9141 -8.91505
-8.83874 -8.83943
-9.03329 -9.0335
-9.13632 -9.13692
-8.82235 -8.82368
-9.10214 -9.10295
-9.17353 -9.17245
-8.87334 -8.87264
-9.08238 -9.08308
-8.96291 -8.96209
-9.05363 -9.05367
-8.99921 -8.99589
-8.94463 -8.94502
-9.1237 -9.12423
-9.00306 -9.00341
-8.98568 -8.98505
-9.03428 -9.03481
-8.78375 -8.78486
-8.9929 -8.99333
-9.15082 -9.15131
-9.08728 -9.08777
-9.09899 -9.09943
-8.55052 -8.55036
-9.15832 -9.15796
-9.14036 -9.14009
-8.98109 -8.98103
-9.15544 -9.1603
-8.91284 -8.91366
-9.06107 -9.06081
-9.04317 -9.04276
-9.01766 -9.01768
-8.76271 -8.76277
-8.75887 -8.75885
-8.99448 -8.995
-8.95798 -8.95783
-9.09106 -9.09084
-9.16787 -9.16813
-9.04309 -9.04303
-9.01755 -9.01692
-8.91961 -8.91991
-9.16666 -9.16683
-9.00207 -9.0034
-8.93742 -8.9382
-9.18827 -9.18798
-9.12477 -9.12456
-9.18347 -9.18346
-8.84552 -8.84504
-9.23299 -9.23187
-9.23395 -9.23434
-9.23395 -9.23385
-9.23395 -9.23385
-9.23395 -9.23382
-9.23395 -9.23385
-9.23395 -9.23426
-9.23395 -9.23411
-9.21986 -9.21962
-9.21974 -9.22018
-9.21959 -9.22035
-9.21944 -9.21884
-9.21675 -9.21566
-9.21934 -9.21962
-9.21964 -9.22009
-9.21907 -9.21849
-9.21802 -9.21714
-9.21894 -9.2187
-9.21259 -9.2101
-9.21239 -9.20981
-9.21752 -9.21661
-9.21466 -9.21289
-9.21629 -9.21506
-9.21942 -9.21934
-9.21701 -9.21599
-9.21962 -9.22007
-9.21856 -9.21776
-9.21991 -9.22003
-9.21259 -9.21009
-9.21894 -9.2187
-9.21978 -9.21995
-9.21568 -9.21427
-9.23075 -9.22945
-9.22825 -9.22894
-9.22854 -9.22927
-9.22843 -9.22923
-9.22969 -9.22934
-9.22935 -9.2293
-9.22894 -9.22926
-9.22931 -9.22928
-9.22866 -9.22924
-9.23132 -9.22971
-9.22867 -9.22925
-9.22908 -9.22927
-9.22932 -9.22928
-9.22915 -9.22926
-9.22855 -9.22919
-9.23064 -9.22971
-9.23129 -9.22968
-9.22865 -9.22926
-9.2313 -9.22969
-9.22434 -9.22216
-9.22682 -9.22741
-9.22642 -9.2255
-9.22642 -9.22539
-9.22531 -9.22347
-9.22672 -9.22701
-9.22694 -9.22726
-9.22476 -9.22268
-9.22717 -9.22794
-9.22715 -9.2278
-9.22694 -9.22727
-9.2258 -9.22421
-9.22676 -9.22681
-9.22673 -9.22626
-9.22691 -9.22694
-9.23088 -9.23107
-9.23149 -9.23161
-9.23034 -9.22926
-9.23074 -9.23113
-9.2311 -9.23152
-9.23062 -9.23083
-9.23063 -9.23081
-9.23035 -9.23012
-9.23062 -9.23083
-9.23086 -9.23127
-9.23149 -9.23161
-9.23082 -9.23114
-9.23078 -9.23119
-9.23085 -9.23108
-9.23032 -9.23002
-9.23081 -9.23139
-9.23107 -9.23143
-9.14329 -9.14415
-9.14446 -9.14435
-9.16799 -9.16728
-9.03339 -9.03362
-9.13012 -9.13013
-9.1589 -9.15867
-9.12367 -9.12382
-9.0997 -9.09933
-9.2304 -9.22906
-9.22879 -9.22927
-9.23081 -9.23139
-9.23086 -9.23109
-9.22806 -9.22884
-9.22679 -9.22712
-9.22485 -9.22284
-9.22923 -9.22929
-9.22581 -9.22423
-9.22623 -9.22501
-9.23395 -9.23409
-9.23395 -9.23382
-9.22406 -9.22519
-9.23395 -9.23388
-9.23395 -9.23381
-9.23395 -9.23385
-9.23395 -9.23384
-9.23395 -9.23388
-9.21299 -9.2106
-9.218 -9.21712
-9.21944 -9.21934
-9.2197 -9.21922
-9.2163 -9.21508
-9.21792 -9.21717
-9.22001 -9.21986
-9.21992 -9.21986
-9.21966 -9.2194
-9.2196 -9.22035
-9.21973 -9.22097
-9.22002 -9.21976
-9.21498 -9.21335
-9.2197 -9.2208
-9.21814 -9.21746
-9.21749 -9.21657
-9.21972 -9.22096
-9.2285 -9.22926
-9.22934 -9.2293
-9.22832 -9.22894
-9.22857 -9.22925
-9.22943 -9.22936
-9.22855 -9.22919
-9.22829 -9.22898
-9.22894 -9.22927
-9.23128 -9.22968
-9.22831 -9.22893
-9.22992 -9.22929
-9.22865 -9.22924
-9.22835 -9.2289
-9.23043 -9.22935
-9.23031 -9.22967
-9.22859 -9.22926
-9.22874 -9.22915
-9.22866 -9.22924
-9.22513 -9.22314
-9.22486 -9.22285
-9.22701 -9.22762
-9.22677 -9.22682
-9.2265 -9.22552
-9.22649 -9.22551
-9.22651 -9.22584
-9.2266 -9.22645
-9.22685 -9.22702
-9.22581 -9.22423
-9.22666 -9.22608
-9.22694 -9.22727
-9.22652 -9.22613
-9.22642 -9.22549
-9.22681 -9.2274
-9.22664 -9.22609
-9.22618 -9.22483
-9.22573 -9.2241
-9.22691 -9.22693
-9.22632 -9.22534
-9.22723 -9.22812
-9.22707 -9.22771
-9.22605 -9.2246
-9.23166 -9.23169
-9.23086 -9.23136
-9.23086 -9.23128
-9.2308 -9.23134
-9.23065 -9.23091
-9.23155 -9.23165
-9.23174 -9.23166
-9.2303 -9.22991
-9.23042 -9.23034
-9.23159 -9.23165
-9.23102 -9.23126
-9.23033 -9.2301
-9.23106 -9.23127
-9.23054 -9.23068
-9.2303 -9.2299
-9.23077 -9.2312
-9.23034 -9.23012
-9.23081 -9.23114
-9.23055 -9.23066
-9.23043 -9.23042
-9.23106 -9.23127
-9.09513 -9.09491
-9.11159 -9.11139
-9.05639 -9.05567
-9.00995 -9.00984
-9.10776 -9.10738
-9.05596 -9.05585
-9.00865 -9.00923
-9.09279 -9.09294
-9.05285 -9.05345
-9.2266 -9.22645
-9.23088 -9.23142
-9.22923 -9.22929
-9.22824 -9.22891
-9.22694 -9.22727
-9.23395 -9.23384
-9.19353 -9.19252
-9.19014 -9.18984
-9.06943 -9.06987
-9.22718 -9.22796
-9.23029 -9.22972
-9.2303 -9.22992
-9.21971 -9.22108
-9.22546 -9.22369
-9.22651 -9.22584
-8.80381 -8.80268
-8.39201 -8.38675
-9.11759 -9.11802
-8.23652 -8.23123
-9.00606 -9.00791
-8.61509 -8.62121
-9.15261 -9.1531
-8.88655 -8.88459
-8.96286 -8.96183
-8.52046 -8.52108
-8.73108 -8.73331
-8.85541 -8.85565
-8.75339 -8.75494
-8.33827 -8.33076
-8.91594 -8.91806
-8.68939 -8.69264
-9.23395 -9.23439
-8.89977 -8.90064
-8.9184 -8.91864
-9.12567 -9.12419
-8.97463 -8.97391
-8.766 -8.76431
-8.89104 -8.89206
-9.10896 -9.10918
-8.76409 -8.76677
-8.59525 -8.5964
-8.85101 -8.84961
-9.06493 -9.06575
-9.20502 -9.20721
-8.95842 -8.96032
-8.66615 -8.66859
-8.99901 -9.0033
-9.19314 -9.19612
-9.15055 -9.15044
-8.8659 -8.86648
-8.99009 -8.99026
-8.726 -8.72729
-9.07536 -9.07611
-8.93647 -8.93713
-9.04557 -9.04514
-9.13606 -9.13608
-9.03512 -9.03548
-8.8829 -8.8803
-9.06808 -9.06889
-8.98876 -8.98973
-9.01035 -9.01338
-8.74711 -8.74676
-9.02578 -9.02682
-9.12484 -9.12719
-9.13354 -9.13251
-9.18912 -9.18911
-9.10762 -9.10785
-9.09391 -9.09486
-9.00095 -9.00134
-9.08614 -9.08645
-8.98967 -8.98827
-9.12537 -9.12643
-8.81088 -8.81134
-9.17369 -9.17383
-8.96057 -8.9607
-8.92615 -8.92581
-9.2121 -9.20936
-9.05005 -9.05041
-8.82853 -8.82828
-9.10645 -9.10649
-8.95394 -8.95492
-9.14017 -9.1405
-9.16082 -9.16079
-9.03195 -9.03165
-8.96922 -8.9701
-9.14529 -9.14512
-9.13871 -9.13884
-9.03949 -9.04004
-9.03455 -9.03532
-9.0005 -9.00492
-9.23395 -9.23382
-9.23395 -9.23416
-9.14795 -9.14854
-9.03392 -9.03361
-9.01964 -9.02098
-9.02749 -9.02941
-9.03953 -9.04033
-8.93213 -8.93204
-8.90494 -8.90554
-8.82945 -8.82933
-9.00483 -9.00609
-9.18775 -9.18768
-9.14666 -9.14608
-9.01779 -9.01859
-9.06927 -9.06924
-9.06386 -9.06425
-9.09608 -9.09656
-9.06432 -9.0634
-9.23395 -9.23449
-9.23395 -9.2344
-9.23395 -9.23397
-9.23347 -9.23337
-9.23395 -9.23387
-9.23395 -9.23405
-9.23395 -9.23446
-9.23395 -9.23436
-9.23395 -9.23386
-9.23395 -9.23388
-9.23395 -9.23382
-9.21964 -9.22008
-9.21991 -9.2202
-9.21699 -9.21597
-9.21963 -9.2196
-9.21789 -9.21712
-9.21511 -9.21354
-9.21944 -9.21899
-9.21976 -9.22065
-9.21953 -9.22012
-9.213 -9.21061
-9.21511 -9.21355
-9.21889 -9.21866
-9.21971 -9.22108
-9.21217 -9.20953
-9.21942 -9.21896
-9.21943 -9.21935
-9.21944 -9.21936
-9.21908 -9.21851
-9.21992 -9.21986
-9.21749 -9.21658
-9.21739 -9.21641
-9.21468 -9.21293
-9.21511 -9.21355
-9.21975 -9.2208
-9.22899 -9.22928
-9.23085 -9.22973
-9.22823 -9.2289
-9.22976 -9.22925
-9.22878 -9.22928
-9.22891 -9.22925
-9.22951 -9.22942
-9.22878 -9.22928
-9.2283 -9.22892
-9.22826 -9.22904
-9.22907 -9.22927
-9.23043 -9.22936
-9.22908 -9.22925
-9.22935 -9.2293
-9.22907 -9.22927
-9.23067 -9.22965
-9.22935 -9.2293
-9.23085 -9.22973
-9.2272 -9.22798
-9.22689 -9.22756
-9.22522 -9.22331
-9.22718 -9.22796
-9.22703 -9.22776
-9.22675 -9.22724
-9.22653 -9.22614
-9.22596 -9.22453
-9.22714 -9.22778
-9.2265 -9.22583
-9.22581 -9.22422
-9.2253 -9.22346
-9.22617 -9.22494
-9.22652 -9.22612
-9.22673 -9.22626
-9.22623 -9.22502
-9.22694 -9.22725
-9.23172 -9.23174
-9.23043 -9.23041
-9.23086 -9.23109
-9.2312 -9.23146
-9.23032 -9.23002
-9.23074 -9.231
-9.23042 -9.23034
-9.23074 -9.23101
-9.23054 -9.23069
-9.23039 -9.23029
-9.2303 -9.22946
-9.23034 -9.22926
-9.23081 -9.23133
-9.23053 -9.23066
-9.23043 -9.2304
-9.2304 -9.22905
-9.23062 -9.23083
-9.23034 -9.22925
-9.23092 -9.23143
-9.23034 -9.2301
-9.2308 -9.23134
-9.23034 -9.23009
-9.23064 -9.2309
-9.23034 -9.22926
-9.23081 -9.23132
-9.23053 -9.23066
-9.2303 -9.22967
-8.94245 -8.94275
-9.14765 -9.14807
-9.15955 -9.1594
-9.07485 -9.07475
-9.16815 -9.16796
-9.22935 -9.2293
-9.23154 -9.23162
-8.98897 -8.98798
-9.23077 -9.23098
-9.23029 -9.22972
-9.22641 -9.22538
-9.21888 -9.21865
-9.23002 -9.22959
-9.22683 -9.22751
-9.21405 -9.21207
-9.23148 -9.23161
-9.22855 -9.22927
-8.90047 -8.90121
-9.22671 -9.22638
-9.22822 -9.22891
-9.23395 -9.23387
-9.23395 -9.23386
-9.23395 -9.23388
-9.23395 -9.23416
-9.23395 -9.23384
-9.23395 -9.23384
-9.23395 -9.23388
-9.22003 -9.21964
-9.23395 -9.23388
-9.23395 -9.23382
-9.23395 -9.23386
-9.21999 -9.21983
-9.21972 -9.22097
-9.21614 -9.21491
-9.21942 -9.21898
-9.21893 -9.21869
-9.21862 -9.21794
-9.21972 -9.22097
-9.21298 -9.21059
-9.21943 -9.21898
-9.21963 -9.21959
-9.21868 -9.21831
-9.21995 -9.21988
-9.21508 -9.21351
-9.21318 -9.21088
-9.21942 -9.21881
-9.2197 -9.22063
-9.21925 -9.21931
-9.21988 -9.2195
-9.21498 -9.21335
-9.22002 -9.21976
-9.22827 -9.22892
-9.22806 -9.22884
-9.22823 -9.2289
-9.23042 -9.22935
-9.22884 -9.22927
-9.22907 -9.22927
-9.22879 -9.22929
-9.23116 -9.22965
-9.22998 -9.22959
-9.22854 -9.22927
-9.22984 -9.22953
-9.22853 -9.22924
-9.22985 -9.22946
-9.23025 -9.22962
-9.22908 -9.22928
-9.22895 -9.22927
-9.22844 -9.22906
-9.22819 -9.22895
-9.22834 -9.22891
-9.22686 -9.22745
-9.22595 -9.22451
-9.22661 -9.22645
-9.22691 -9.22694
-9.22618 -9.22484
-9.22708 -9.22766
-9.22662 -9.22622
-9.2265 -9.22565
-9.22702 -9.22727
-9.22665 -9.22611
-9.22649 -9.2255
-9.2258 -9.22421
-9.22619 -9.22497
-9.22485 -9.22284
-9.22708 -9.22771
-9.22718 -9.22795
-9.22664 -9.2261
-9.23038 -9.2291
-9.23148 -9.23161
-9.23082 -9.23114
-9.23141 -9.23154
-9.2303 -9.22953
-9.23092 -9.23143
-9.23095 -9.23126
-9.2312 -9.23147
-9.23149 -9.23161
-9.23083 -9.23141
-9.23074 -9.23099
-9.23048 -9.23053
-9.2303 -9.22991
-9.23086 -9.23127
-9.23038 -9.2291
-9.23141 -9.23154
-9.23155 -9.23165
-9.03792 -9.03788
-9.10024 -9.10034
-8.89568 -8.89528
-9.02588 -9.02556
-9.12057 -9.12087
-8.94028 -8.9401
-8.98722 -8.98722
-9.0131 -9.01398
-9.09873 -9.09894
-9.16021 -9.1593
-9.06413 -9.06451
-9.1618 -9.16152
-8.98527 -8.98563
-9.13564 -9.13544
-9.23034 -9.22925
-9.23061 -9.23072
-9.22545 -9.22368
-9.23034 -9.23012
-9.22835 -9.22891
-9.23395 -9.2345
-9.22486 -9.22285
-9.22822 -9.2289
-9.23095 -9.23125
-8.70034 -8.70252
-9.21752 -9.2166
-8.75983 -8.75557
-8.98877 -8.99018
-9.0516 -9.05192
-8.84087 -8.84041
-8.16789 -8.16366
-8.55151 -8.53896
-8.79502 -8.79562
-8.28343 -8.27748
-8.98783 -8.98815
-9.06578 -9.06499
-8.70375 -8.70366
-9.06868 -9.06935
-8.97542 -8.9792
-8.62635 -8.62775
-9.03407 -9.03392
-9.12501 -9.12492
-8.88647 -8.88792
-8.79042 -8.79126
-8.98956 -8.98977
-8.85856 -8.85159
-9.00883 -9.00893
-9.06121 -9.06485
-8.97339 -8.97424
-8.90865 -8.90909
-9.19727 -9.19728
-9.06104 -9.06081
-8.91577 -8.91456
-9.09125 -9.09002
-8.94693 -8.94707
-8.99144 -8.99201
-9.02154 -9.0209
-8.92079 -8.92925
-8.7395 -8.73985
-9.02918 -9.03019
-9.08301 -9.08174
-8.81816 -8.81844
-9.01424 -9.0151
-9.23395 -9.23432
-8.89892 -8.89929
-9.01209 -9.01277
-9.07052 -9.07133
-9.07983 -9.0809
-8.97206 -8.97194
-8.93478 -8.93423
-8.82758 -8.82774
-9.13349 -9.13354
-9.05346 -9.05418
-8.97153 -8.97227
-9.07601 -9.07626
-8.95104 -8.95135
-9.21892 -9.21887
-9.08846 -9.08747
-9.09597 -9.09587
-9.07709 -9.07763
-9.16951 -9.16944
-9.15351 -9.15368
-8.83689 -8.83639
-9.14627 -9.14688
-9.11841 -9.11849
-9.18916 -9.18741
-8.9553 -8.95639
-9.05782 -9.05764
-9.11488 -9.11512
-9.23395 -9.23388
-9.23395 -9.23387
-9.23395 -9.23381
-9.23395 -9.23382
-9.23395 -9.23386
-9.23395 -9.23388
-9.23395 -9.23427
-9.23395 -9.23421
-9.23395 -9.23381
-9.21971 -9.22064
-9.21608 -9.21478
-9.21869 -9.21833
-9.21987 -9.21952
-9.21976 -9.22018
-9.21971 -9.22097
-9.21436 -9.2125
-9.2175 -9.21659
-9.21801 -9.21713
-9.21813 -9.21746
-9.21741 -9.21643
-9.2179 -9.21714
-9.21509 -9.21352
-9.21979 -9.22046
-9.21789 -9.21713
-9.21238 -9.2098
-9.21217 -9.20953
-9.22959 -9.22936
-9.22826 -9.22904
-9.22847 -9.22926
-9.23003 -9.22942
-9.22839 -9.22906
-9.22827 -9.22896
-9.23043 -9.22968
-9.22879 -9.22927
-9.22907 -9.22925
-9.22891 -9.22926
-9.2305 -9.22945
-9.22847 -9.22926
-9.22824 -9.22897
-9.22866 -9.22924
-9.23117 -9.22965
-9.23086 -9.22965
-9.22943 -9.22936
-9.22911 -9.22931
-9.22894 -9.22926
-9.22984 -9.22953
-9.2297 -9.22949
-9.22884 -9.22926
-9.22944 -9.22936
-9.22908 -9.22927
-9.22908 -9.22928
-9.22875 -9.22925
-9.22971 -9.22937
-9.23031 -9.22947
-9.23002 -9.22959
-9.2265 -9.22563
-9.22715 -9.22781
-9.22678 -9.22711
-9.22709 -9.22768
-9.22695 -9.22727
-9.22573 -9.2241
-9.22646 -9.22576
-9.2267 -9.22637
-9.22646 -9.22575
-9.22666 -9.22655
-9.22581 -9.22421
-9.22693 -9.22691
-9.22513 -9.22314
-9.22434 -9.22216
-9.2265 -9.22563
-9.227 -9.22727
-9.2269 -9.22692
-9.22666 -9.22611
-9.22678 -9.2271
-9.22708 -9.22767
-9.22691 -9.22692
-9.22682 -9.22673
-9.22702 -9.22727
-9.22434 -9.22216
-9.23055 -9.23067
-9.23034 -9.22925
-9.23046 -9.22878
-9.23058 -9.23072
-9.23042 -9.22895
-9.23062 -9.23083
-9.23122 -9.23148
-9.23048 -9.23053
-9.2304 -9.22906
-9.23086 -9.23136
-9.23148 -9.23161
-9.23042 -9.23034
-9.2304 -9.22906
-9.23086 -9.23136
-9.23031 -9.22996
-9.23046 -9.22878
-9.23029 -9.22972
-9.23048 -9.23053
-9.23067 -9.23101
-9.23063 -9.2308
-9.23029 -9.22966
-9.23077 -9.23097
-9.23094 -9.23123
-9.23111 -9.23151
-9.23103 -9.23144
-9.23042 -9.22895
-9.2314 -9.23154
-9.23149 -9.23161
-9.16558 -9.16477
-9.08975 -9.09018
-9.12186 -9.12104
-9.19079 -9.19027
-9.22678 -9.2271
-9.2312 -9.23147
-9.22938 -9.22912
-9.22675 -9.22725
-9.23042 -9.22935
-9.23033 -9.22936
-9.14268 -9.14247
-9.07965 -9.07981
-9.20555 -9.20548
-9.22855 -9.22927
-9.22708 -9.22771
-9.23395 -9.23392
-9.23395 -9.23384
-9.23081 -9.23132
-9.23395 -9.23386
-9.23395 -9.23385
-9.23395 -9.23388
-9.21972 -9.22096
-9.21989 -9.22019
-9.21979 -9.21997
-9.21814 -9.21737
-9.21945 -9.21961
-9.21971 -9.22065
-9.21858 -9.21779
-9.2151 -9.21353
-9.21389 -9.21182
-9.21923 -9.21935
-9.21906 -9.21835
-9.21966 -9.21961
-9.21964 -9.22031
-9.21978 -9.21996
-9.21336 -9.21112
-9.21388 -9.21181
-9.21974 -9.22016
-9.21856 -9.21776
-9.21893 -9.21868
-9.21788 -9.2171
-9.21941 -9.21931
-9.21961 -9.22005
-9.21389 -9.21183
-9.21985 -9.21962
-9.22853 -9.22916
-9.22907 -9.22927
-9.22822 -9.2289
-9.22833 -9.22899
-9.22983 -9.22953
-9.22849 -9.22926
-9.22873 -9.22924
-9.22835 -9.22891
-9.22883 -9.22926
-9.22839 -9.22907
-9.2301 -9.22952
-9.22959 -9.22936
-9.22933 -9.2294
-9.22968 -9.22932
-9.22879 -9.22928
-9.22969 -9.22935
-9.22923 -9.22928
-9.23075 -9.22946
-9.23114 -9.22979
-9.22879 -9.22924
-9.22826 -9.22904
-9.22445 -9.22228
-9.2269 -9.22693
-9.2268 -9.2274
-9.22606 -9.22462
-9.22632 -9.22534
-9.22681 -9.22739
-9.2269 -9.22694
-9.22681 -9.2274
-9.22718 -9.22796
-9.22719 -9.22796
-9.22633 -9.22535
-9.22666 -9.22677
-9.22682 -9.22749
-9.22666 -9.22612
-9.2265 -9.22551
-9.22651 -9.22583
-9.22665 -9.22609
-9.22679 -9.22713
-9.22724 -9.22811
-9.23141 -9.23154
-9.23167 -9.23167
-9.23148 -9.23161
-9.2308 -9.23134
-9.2312 -9.23147
-9.23029 -9.22972
-9.23165 -9.23169
-9.23102 -9.23125
-9.23055 -9.23066
-9.23048 -9.22873
-9.23147 -9.23159
-9.23114 -9.23134
-9.23064 -9.2309
-9.2303 -9.22952
-9.23047 -9.23049
-9.23074 -9.231
-9.2308 -9.2314
-9.23055 -9.23066
-9.23032 -9.23001
-9.23047 -9.23048
-9.23034 -9.2301
-9.2303 -9.22988
-9.23078 -9.23119
-9.12012 -9.1205
-9.02783 -9.0277
-9.1133 -9.11364
-9.04526 -9.04529
-9.17255 -9.17223
-9.04693 -9.04734
-9.09103 -9.09114
-9.18156 -9.18188
-9.22709 -9.22776
-9.23155 -9.23165
-9.22867 -9.22925
-9.23106 -9.23134
-9.22719 -9.22796
-9.22873 -9.22924
-9.21607 -9.21476
-9.227 -9.22726
-9.23106 -9.23134
-9.21972 -9.22097
-9.02675 -9.02789
-8.5387 -8.53783
-8.62761 -8.62976
-9.06308 -9.06639
-8.89642 -8.89405
-8.74369 -8.74454
-9.10075 -9.10155
-8.81097 -8.81058
-8.91428 -8.9144
-8.7581 -8.75633
-8.58609 -8.58566
-9.09477 -9.09553
-9.22775 -9.22768
-8.92665 -8.9252
-8.44464 -8.44073
-8.89007 -8.88569
-8.72156 -8.72348
-8.92026 -8.92047
-8.92408 -8.92423
-9.03963 -9.04264
-8.84811 -8.84622
-8.7666 -8.76809
-8.51457 -8.51477
-9.09393 -9.09514
-9.09296 -9.08771
-9.02028 -9.02061
-8.99923 -8.99688
-8.92514 -8.92513
-9.23395 -9.23388
-8.87817 -8.87794
-9.042 -9.04401
-9.11739 -9.11782
-8.85522 -8.85974
-8.52859 -8.52537
-9.02112 -9.02157
-9.07426 -9.07489
-9.15608 -9.15444
-8.94578 -8.94524
-8.93954 -8.93969
-8.70919 -8.70873
-9.00424 -9.00512
-9.06514 -9.06551
-9.14965 -9.14994
-8.89521 -8.89647
-9.09848 -9.10084
-8.94135 -8.94115
-9.00695 -9.00823
-8.99188 -8.9922
-8.90678 -8.90728
-8.92969 -8.93058
-8.91507 -8.91542
-8.97725 -8.97746
-9.0432 -9.04333
-8.91262 -8.91262
-8.95384 -8.95306
-8.98199 -8.98289
-9.06402 -9.06391
-9.09218 -9.09355
-8.94764 -8.94749
-9.1809 -9.18086
-9.09517 -9.09507
-8.87182 -8.87111
-8.99391 -8.99383
-8.98377 -8.9835
-8.96052 -8.9607
-8.97798 -8.97795
-9.05109 -9.05129
-9.10349 -9.10325
-9.09836 -9.09825
-9.14598 -9.14611
-9.09142 -9.09168
-9.14257 -9.14266
-9.08062 -9.08101
-9.23048 -9.22862
-9.23395 -9.23388
-9.23395 -9.23386
-9.23395 -9.23382
-9.23174 -9.23166
-9.23395 -9.23413
-9.23395 -9.23446
-9.23395 -9.23401
-9.23395 -9.23389
-9.23395 -9.23382
-9.21782 -9.21706
-9.21238 -9.2098
-9.21467 -9.21291
-9.21998 -9.21984
-9.21941 -9.21932
-9.2186 -9.2178
-9.21914 -9.21881
-9.21984 -9.22032
-9.2179 -9.21714
-9.21724 -9.21625
-9.21861 -9.21792
-9.21891 -9.21867
-9.2175 -9.2166
-9.21974 -9.21924
-9.21509 -9.21351
-9.21971 -9.22097
-9.21971 -9.22105
-9.21999 -9.21983
-9.21989 -9.22019
-9.22985 -9.22946
-9.22908 -9.22927
-9.22944 -9.22936
-9.22969 -9.22949
-9.22893 -9.22926
-9.22916 -9.22926
-9.22943 -9.22936
-9.2297 -9.22936
-9.23114 -9.22979
-9.2285 -9.22926
-9.23025 -9.22962
-9.23042 -9.22935
-9.22894 -9.22926
-9.22866 -9.22924
-9.22866 -9.22929
-9.22958 -9.22939
-9.22893 -9.22926
-9.22878 -9.22928
-9.229 -9.22928
-9.22943 -9.22936
-9.22893 -9.22926
-9.2288 -9.22929
-9.22823 -9.2289
-9.23007 -9.22947
-9.22702 -9.22727
-9.22726 -9.22813
-9.22581 -9.22422
-9.22485 -9.22285
-9.22683 -9.22675
-9.22618 -9.22496
-9.22678 -9.22683
-9.22563 -9.22389
-9.22712 -9.22769
-9.22702 -9.22775
-9.2272 -9.22804
-9.22703 -9.22727
-9.22521 -9.22329
-9.22651 -9.22584
-9.22604 -9.22458
-9.22618 -9.22495
-9.2268 -9.2274
-9.22677 -9.22726
-9.22706 -9.22742
-9.22709 -9.22776
-9.23047 -9.22873
-9.2303 -9.22967
-9.23135 -9.23152
-9.23086 -9.23109
-9.23078 -9.23119
-9.23076 -9.23127
-9.23096 -9.23135
-9.23029 -9.22967
-9.23077 -9.2312
-9.23106 -9.23126
-9.23034 -9.22927
-9.23034 -9.23011
-9.23043 -9.23041
-9.23132 -9.23158
-9.23042 -9.22895
-9.23103 -9.23143
-9.2303 -9.22972
-9.23055 -9.23066
-9.23054 -9.23069
-9.23131 -9.23148
-9.06539 -9.0654
-8.99814 -8.99852
-9.12251 -9.1228
-9.02136 -9.02179
-9.09335 -9.09333
-8.97452 -8.97462
-9.10804 -9.10776
-9.18184 -9.18196
-9.16619 -9.16612
-9.15983 -9.15956
-9.12541 -9.12512
-9.18668 -9.18648
-9.11751 -9.11803
-9.02258 -9.02289
-9.1628 -9.16241
-9.22821 -9.2289
-9.22678 -9.22711
-9.22445 -9.22228
-9.21789 -9.21713
-9.21986 -9.21962
-9.23058 -9.23072
-9.23395 -9.23448
-9.23395 -9.23384
-9.23395 -9.2339
-9.23395 -9.23387
-9.23395 -9.23382
-9.23395 -9.23382
-9.23395 -9.23386
-9.23395 -9.2345
-9.23395 -9.23389
-9.23395 -9.23388
-9.23395 -9.23382
-9.21963 -9.2203
-9.2197 -9.22081
-9.21971 -9.22064
-9.21405 -9.21208
-9.2199 -9.21953
-9.21893 -9.21869
-9.21861 -9.21793
-9.21975 -9.22016
-9.21971 -9.22063
-9.21943 -9.21883
-9.2188 -9.21837
-9.21905 -9.21834
-9.21987 -9.21951
-9.21892 -9.21867
-9.21942 -9.21933
-9.22923 -9.22928
-9.22863 -9.22899
-9.22872 -9.22927
-9.2296 -9.22936
-9.22908 -9.22926
-9.22878 -9.22923
-9.23042 -9.22936
-9.22923 -9.22928
-9.22891 -9.22925
-9.22908 -9.22928
-9.23013 -9.22954
-9.22948 -9.22938
-9.22897 -9.22934
-9.23014 -9.22954
-9.22855 -9.22927
-9.22827 -9.22892
-9.22455 -9.22244
-9.22681 -9.2274
-9.22724 -9.22811
-9.22531 -9.22347
-9.22652 -9.22612
-9.22679 -9.22712
-9.22678 -9.22711
-9.22574 -9.22411
-9.22617 -9.22495
-9.227 -9.22726
-9.22608 -9.2247
-9.22455 -9.22244
-9.22496 -9.22297
-9.22709 -9.22776
-9.22713 -9.22778
-9.2267 -9.22636
-9.2266 -9.22644
-9.22708 -9.22765
-9.22712 -9.22768
-9.22522 -9.2233
-9.22725 -9.2282
-9.23048 -9.23053
-9.23054 -9.23068
-9.23107 -9.23127
-9.2308 -9.2314
-9.23055 -9.23068
-9.23086 -9.23109
-9.23062 -9.23083
-9.2303 -9.22955
-9.23048 -9.23054
-9.2303 -9.22989
-9.23107 -9.23143
-9.23038 -9.2291
-9.23135 -9.23151
-9.23107 -9.23144
-9.2312 -9.23147
-9.23061 -9.23073
-9.23092 -9.23143
-9.23048 -9.23055
-9.23167 -9.23168
-9.2304 -9.22906
-9.23089 -9.23141
-9.07377 -9.0744
-9.04429 -9.04463
-9.05627 -9.05693
-9.14868 -9.14896
-9.15242 -9.1524
-9.15387 -9.15369
-9.07866 -9.07923
-9.12483 -9.12483
-9.1017 -9.102
-9.01841 -9.01881
-9.22806 -9.22884
-9.23048 -9.23054
-9.09669 -9.09695
-9.23395 -9.23382
-9.22546 -9.22369
-9.22652 -9.22585
-9.23395 -9.23392
-9.08577 -9.08608
-9.22718 -9.22796
-9.23395 -9.23411
-9.23149 -9.23161
-9.22624 -9.22503
-8.87568 -8.87534
-8.97223 -8.97309
-8.47359 -8.47544
-8.77433 -8.77833
-8.76433 -8.76447
-8.95336 -8.95601
-8.32902 -8.33913
-8.6495 -8.64624
-8.23625 -8.23485
-9.06398 -9.06419
-8.54263 -8.54816
-8.77543 -8.7776
-8.85717 -8.85839
-8.43018 -8.42531
-9.08597 -9.0889
-8.39762 -8.39394
-9.10218 -9.10976
-8.93193 -8.93083
-8.76346 -8.76351
-8.68262 -8.67838
-9.00411 -9.00528
-9.00867 -9.00794
-9.02316 -9.02311
-8.7257 -8.72173
-9.0749 -9.07477
-8.95748 -8.95607
-9.16852 -9.16816
-8.74464 -8.74441
-8.77021 -8.77567
-9.03361 -9.03139
-8.95567 -8.95583
-9.00207 -9.00235
-8.73541 -8.73708
-8.79193 -8.7928
-9.21357 -9.21525
-9.00094 -9.00063
-9.0399 -9.04207
-9.14659 -9.14195
-8.96385 -8.96547
-9.0719 -9.07317
-9.01822 -9.01955
-8.90089 -8.90074
-8.84623 -8.84624
-9.11679 -9.11697
-9.08838 -9.08836
-9.04739 -9.04713
-8.88716 -8.88696
-8.84656 -8.84589
-9.21921 -9.21664
-9.08071 -9.08078
-9.02356 -9.0236
-9.12785 -9.13243
-9.18479 -9.18481
-9.0155 -9.01546
-9.13799 -9.13849
-8.96394 -8.96394
-9.22409 -9.2242
-9.07601 -9.07599
-9.23215 -9.23054
-8.91933 -8.91916
-9.08813 -9.08829
-9.18547 -9.18558
-9.11112 -9.11138
-8.84967 -8.84582
-9.09608 -9.09533
-8.99823 -8.99848
-9.05556 -9.05691
-9.23395 -9.2343
-9.08476 -9.08608
-9.11109 -9.11174
-9.01894 -9.019
-8.98963 -8.98985
-9.07 -9.07028
-9.04707 -9.04798
-9.08385 -9.08363
-9.05907 -9.06007
-8.97814 -8.97925
-9.10271 -9.10337
-9.23395 -9.23385
-9.17844 -9.17863
-9.18377 -9.18365
-8.95869 -8.95912
-9.00734 -9.00762
-9.23395 -9.23442
-9.23395 -9.23384
-9.23395 -9.23388
-9.23395 -9.23384
-9.23395 -9.23386
-9.23395 -9.23382
-9.21319 -9.2109
-9.21984 -9.22032
-9.21724 -9.21626
-9.21568 -9.21426
-9.21857 -9.21777
-9.21815 -9.21748
-9.21925 -9.21932
-9.21337 -9.21114
-9.21979 -9.21997
-9.21892 -9.21867
-9.21858 -9.21778
-9.21998 -9.21984
-9.21698 -9.21595
-9.21827 -9.21761
-9.21788 -9.2171
-9.21607 -9.21475
-9.21935 -9.21961
-9.2155 -9.21409
-9.21914 -9.21881
-9.21953 -9.22011
-9.21971 -9.22097
-9.21888 -9.21865
-9.23131 -9.22971
-9.22879 -9.22928
-9.22906 -9.22927
-9.23003 -9.22959
-9.22906 -9.22926
-9.22907 -9.22927
-9.22908 -9.22928
-9.23063 -9.2297
-9.22884 -9.22925
-9.22942 -9.22936
-9.22934 -9.2293
-9.22879 -9.22928
-9.22908 -9.22927
-9.22859 -9.22926
-9.23063 -9.22969
-9.22902 -9.22905
-9.22854 -9.22927
-9.22935 -9.2293
-9.22944 -9.22936
-9.22957 -9.22938
-9.22906 -9.22927
-9.22685 -9.22753
-9.22707 -9.2277
-9.22713 -9.2277
-9.22692 -9.22759
-9.22581 -9.22422
-9.22688 -9.22674
-9.22682 -9.22741
-9.22619 -9.22498
-9.2265 -9.22564
-9.22723 -9.22813
-9.22723 -9.22812
-9.22605 -9.2246
-9.22576 -9.22412
-9.22595 -9.2245
-9.22692 -9.2276
-9.2269 -9.22758
-9.2253 -9.22346
-9.22718 -9.22796
-9.22701 -9.22742
-9.22445 -9.22228
-9.22576 -9.22412
-9.23147 -9.23159
-9.23034 -9.2301
-9.2303 -9.2299
-9.23062 -9.23084
-9.23047 -9.23049
-9.23054 -9.23069
-9.23082 -9.23114
-9.23078 -9.23119
-9.23074 -9.23112
-9.23159 -9.23166
-9.23031 -9.22996
-9.23038 -9.2291
-9.23077 -9.23098
-9.23095 -9.23123
-9.23168 -9.23167
-9.13847 -9.13796
-9.05562 -9.05593
-9.11012 -9.1106
-9.16481 -9.16476
-9.22689 -9.22756
-9.22522 -9.22331
-9.23078 -9.23119
-9.22822 -9.22891
-9.23038 -9.2303
-9.22934 -9.2293
-9.22985 -9.22945
-9.22617 -9.22495
-9.22644 -9.22552
-9.06232 -9.06297
-9.21971 -9.21922
-9.23051 -9.22946
-9.22879 -9.22925
-9.22705 -9.22742
-9.22663 -9.22623
-9.23395 -9.23435
-9.23395 -9.23385
-9.23395 -9.23382
-9.23395 -9.23386
-9.23395 -9.23389
-9.23395 -9.23382
-9.23395 -9.23382
-9.23395 -9.23388
-9.23395 -9.23387
-9.23395 -9.23388
-9.2196 -9.22036
-9.21995 -9.21988
-9.21944 -9.21899
-9.21629 -9.21507
-9.2191 -9.21854
-9.2157 -9.21431
-9.21614 -9.21491
-9.21986 -9.21962
-9.21989 -9.22019
-9.21972 -9.22096
-9.21954 -9.22013
-9.21814 -9.21737
-9.21922 -9.21934
-9.21682 -9.21575
-9.21714 -9.21608
-9.21859 -9.2178
-9.22001 -9.21986
-9.21579 -9.21444
-9.21971 -9.22108
-9.2313 -9.22969
-9.23025 -9.22961
-9.22866 -9.22924
-9.22969 -9.22948
-9.22845 -9.22908
-9.22843 -9.229
-9.22959 -9.22936
-9.22875 -9.22916
-9.23075 -9.22946
-9.22849 -9.22926
-9.22895 -9.22933
-9.23007 -9.22963
-9.22961 -9.22936
-9.22879 -9.22928
-9.22969 -9.22933
-9.22945 -9.22934
-9.23033 -9.22957
-9.22979 -9.22929
-9.22857 -9.22925
-9.22959 -9.22936
-9.22713 -9.22778
-9.22687 -9.22732
-9.22581 -9.22423
-9.22676 -9.22681
-9.22653 -9.22614
-9.22523 -9.22332
-9.22522 -9.22331
-9.22721 -9.22805
-9.2265 -9.22562
-9.2265 -9.22585
-9.22646 -9.22575
-9.22678 -9.22683
-9.2266 -9.22644
-9.22652 -9.22586
-9.22608 -9.22469
-9.22666 -9.22607
-9.2303 -9.22991
-9.23046 -9.22878
-9.23042 -9.23034
-9.23165 -9.23169
-9.23159 -9.23165
-9.23078 -9.23119
-9.23039 -9.2303
-9.23103 -9.23143
-9.23062 -9.23074
-9.23035 -9.23012
-9.23042 -9.23033
-9.23067 -9.23101
-9.23062 -9.23083
-9.23132 -9.23158
-9.23046 -9.22878
-9.2314 -9.23154
-9.23106 -9.23127
-9.23131 -9.23148
-9.23121 -9.23147
-9.23061 -9.23083
-9.23085 -9.23108
-9.23056 -9.23067
-9.23029 -9.22965
-9.23048 -9.23053
-9.23122 -9.23146
-9.23076 -9.23097
-9.23135 -9.23151
-9.2303 -9.22991
-9.23035 -9.22915
-9.10115 -9.10103
-9.10952 -9.10895
-9.082 -9.08221
-8.9209 -8.92096
-9.1309 -9.13043
-8.91036 -8.91033
-9.05794 -9.05837
-9.0864 -9.08652
-9.13963 -9.13991
-9.13102 -9.13111
-9.22693 -9.2269
-9.21971 -9.22064
-9.22866 -9.22924
-9.13357 -9.13424
-9.23395 -9.23431
-9.23043 -9.23042
-9.23395 -9.23388
-9.22619 -9.22485
-9.21903 -9.21832
-9.23395 -9.23382
-9.22665 -9.2261
-8.52114 -8.51944
-8.6351 -8.63607
-8.86014 -8.85281
-8.54958 -8.54959
-8.68461 -8.68748
-8.89627 -8.89748
-8.27622 -8.27325
-9.22791 -9.22588
-9.11198 -9.10722
-8.85488 -8.8528
-8.97427 -8.97445
-8.68405 -8.68984
-9.13445 -9.13359
-9.10667 -9.10701
-9.1444 -9.14507
-8.98365 -8.98434
-8.8352 -8.83412
-8.99559 -8.99539
-8.92785 -8.931
-9.01413 -9.01502
-8.96709 -8.96694
-8.81892 -8.81932
-8.92405 -8.92454
-8.91183 -8.91102
-8.80771 -8.80783
-9.01419 -9.01528
-8.86833 -8.86567
-9.05264 -9.05085
-9.05272 -9.05342
-8.91089 -8.9117
-8.94794 -8.94751
-8.83426 -8.83426
-8.99652 -8.99708
-9.15524 -9.15407
-9.17632 -9.17718
-9.17102 -9.17126
-9.16129 -9.16167
-9.09524 -9.09491
-9.1897 -9.18629
-9.18586 -9.18638
-9.05611 -9.05648
-8.75165 -8.75315
-8.71852 -8.71875
-8.90453 -8.90526
-8.86891 -8.86903
-8.8139 -8.81512
-8.91784 -8.91846
-8.8972 -8.89739
-9.13196 -9.13348
-8.84165 -8.84157
-8.92203 -8.92281
-9.12496 -9.12523
-9.01559 -9.01558
-8.72496 -8.724
-8.83208 -8.83079
-9.12254 -9.12289
-9.08556 -9.08626
-8.9835 -8.98454
-8.74332 -8.74358
-9.06287 -9.06315
-9.05606 -9.05276
-8.98636 -8.98713
-8.87425 -8.87496
-9.07294 -9.0725
-9.15302 -9.15216
-9.00719 -9.00602
-8.97372 -8.97463
-9.14777 -9.14755
-9.06517 -9.0658
-8.88378 -8.88447
-9.02156 -9.02198
-9.10678 -9.10641
-9.04376 -9.04416
-9.12587 -9.12582
-9.02065 -9.02098
-8.9826 -8.98216
-9.00621 -9.00629
-8.97829 -8.97883
-8.98428 -8.98491
-9.13229 -9.13222
-9.23034 -9.22925
-8.90405 -8.90409
-9.13771 -9.13761
-9.11827 -9.11869
-9.23395 -9.23341
-9.23395 -9.23406
-9.23395 -9.23442
-9.23395 -9.23431
-9.23395 -9.23388
-9.23395 -9.23386
-9.23395 -9.23382
-9.23353 -9.2332
-9.23395 -9.2339
-9.23395 -9.23385
-9.23395 -9.23388
-9.21926 -9.21932
-9.21238 -9.2098
-9.21893 -9.2187
-9.21944 -9.21935
-9.21955 -9.22014
-9.21881 -9.21838
-9.21909 -9.21852
-9.22001 -9.2197
-9.21987 -9.21951
-9.21973 -9.21924
-9.21702 -9.21601
-9.21616 -9.21494
-9.21942 -9.21932
-9.21258 -9.21008
-9.21981 -9.22047
-9.21968 -9.21941
-9.21509 -9.21352
-9.21998 -9.21968
-9.21614 -9.21491
-9.21628 -9.21505
-9.21966 -9.21939
-9.21856 -9.21775
-9.2192 -9.2193
-9.21813 -9.21736
-9.21782 -9.21706
-9.21238 -9.2098
-9.22824 -9.22897
-9.23096 -9.22977
-9.2303 -9.22945
-9.22885 -9.22926
-9.22944 -9.22936
-9.22952 -9.22942
-9.22853 -9.22925
-9.23013 -9.22953
-9.22909 -9.22929
-9.22858 -9.22925
-9.22907 -9.22927
-9.22857 -9.22925
-9.22806 -9.22884
-9.22854 -9.22917
-9.23074 -9.22945
-9.22878 -9.22928
-9.22872 -9.22927
-9.22916 -9.22926
-9.22856 -9.22924
-9.22842 -9.22899
-9.22826 -9.22901
-9.22605 -9.2246
-9.22716 -9.22781
-9.2269 -9.22694
-9.22694 -9.22727
-9.22717 -9.22795
-9.22701 -9.22742
-9.2266 -9.22645
-9.22666 -9.22612
-9.2264 -9.22537
-9.22712 -9.22789
-9.22698 -9.22763
-9.22687 -9.22732
-9.22664 -9.22676
-9.22702 -9.22775
-9.22708 -9.22771
-9.22662 -9.22622
-9.22714 -9.22778
-9.2272 -9.22804
-9.23174 -9.23166
-9.23111 -9.23151
-9.23121 -9.23146
-9.23067 -9.23101
-9.23041 -9.23037
-9.23049 -9.23054
-9.23032 -9.23001
-9.23055 -9.23067
-9.23149 -9.23161
-9.2303 -9.22987
-9.23076 -9.23126
-9.23132 -9.23158
-9.23029 -9.22973
-9.23125 -9.23148
-9.23174 -9.23166
-9.07473 -9.07492
-9.15586 -9.1559
-9.04031 -9.04114
-9.07183 -9.07192
-9.11025 -9.1102
-9.01793 -9.01849
-9.04983 -9.05017
-9.06787 -9.06799
-9.06188 -9.06254
-9.20952 -9.20897
-9.22702 -9.22775
-9.22522 -9.2233
-9.2258 -9.22422
-9.23149 -9.23161
-9.0864 -9.08621
-9.22855 -9.22927
-9.06502 -9.06498
-9.23395 -9.23384
-9.22854 -9.22927
-9.22701 -9.22761
-9.22899 -9.22928
-9.23395 -9.23416
-9.22977 -9.2302
-9.23395 -9.23394
-9.23395 -9.23389
-9.20547 -9.20452
-9.23395 -9.23392
-9.23395 -9.23389
-9.21568 -9.21427
-9.21498 -9.21335
-9.21259 -9.21009
-9.21975 -9.22016
-9.21943 -9.21897
-9.21944 -9.21937
-9.21715 -9.2161
-9.21894 -9.21869
-9.21751 -9.21659
-9.21943 -9.21882
-9.21893 -9.2187
-9.21614 -9.21491
-9.21988 -9.22001
-9.21934 -9.21961
-9.21613 -9.2149
-9.2199 -9.21953
-9.21941 -9.21896
-9.21964 -9.2203
-9.21973 -9.22096
-9.21716 -9.21611
-9.22939 -9.22931
-9.22911 -9.22928
-9.22826 -9.22901
-9.22943 -9.22936
-9.23007 -9.22947
-9.22853 -9.22925
-9.22935 -9.2293
-9.2296 -9.22936
-9.22872 -9.22927
-9.22897 -9.22934
-9.22923 -9.22928
-9.23075 -9.22946
-9.22998 -9.22959
-9.22909 -9.22929
-9.22829 -9.22908
-9.22894 -9.22926
-9.22884 -9.22926
-9.22827 -9.22901
-9.2284 -9.22907
-9.23144 -9.22975
-9.22911 -9.22928
-9.22445 -9.22228
-9.2265 -9.22584
-9.22624 -9.22502
-9.2269 -9.22758
-9.22694 -9.22725
-9.22703 -9.22726
-9.22691 -9.22694
-9.22718 -9.22796
-9.22664 -9.2261
-9.22715 -9.22782
-9.2272 -9.22798
-9.22707 -9.2277
-9.22475 -9.22267
-9.22693 -9.22725
-9.22723 -9.22812
-9.23035 -9.22915
-9.23168 -9.23167
-9.23033 -9.2301
-9.23029 -9.22966
-9.23055 -9.23066
-9.23041 -9.23037
-9.23094 -9.23124
-9.23033 -9.2301
-9.23088 -9.23107
-9.23154 -9.23162
-9.23035 -9.22916
-9.23086 -9.23109
-9.23148 -9.23161
-9.23095 -9.23124
-9.23088 -9.23143
-9.23095 -9.23135
-9.23114 -9.23134
-9.23085 -9.23108
-9.23121 -9.23145
-9.23094 -9.23124
-9.23033 -9.23009
-9.23146 -9.23159
-9.23159 -9.23166
-9.23174 -9.23166
-9.1297 -9.12969
-9.19346 -9.19299
-9.10218 -9.10242
-9.08641 -9.08653
-8.84645 -8.8463
-9.0141 -9.01448
-9.16421 -9.16415
-9.01953 -9.01934
-9.04062 -9.04095
-9.11413 -9.11406
-9.22002 -9.21976
-9.22884 -9.22926
-9.17871 -9.17921
-9.2265 -9.22583
-9.23031 -9.22996
-9.22618 -9.22496
-9.23077 -9.2312
-9.22932 -9.22928
-9.21753 -9.21663
-8.84398 -8.84371
-8.53812 -8.52833
-8.157 -8.16359
-8.73057 -8.7304
-8.46719 -8.47723
-8.62495 -8.62659
-8.80463 -8.80441
-8.96057 -8.96149
-8.24355 -8.25242
-9.23395 -9.23406
-8.32564 -8.33282
-9.13196 -9.13232
-8.68846 -8.68808
-9.10012 -9.0981
-9.0714 -9.07182
-9.16666 -9.16671
-9.09474 -9.09512
-9.06206 -9.0635
-8.70688 -8.70235
-8.74513 -8.74102
-9.06996 -9.06893
-8.90568 -8.90565
-8.81737 -8.81733
-8.90819 -8.90779
-8.88761 -8.88889
-9.06322 -9.06347
-9.17684 -9.18094
-9.12104 -9.12153
-8.84261 -8.84267
-9.06745 -9.06989
-8.87532 -8.87606
-9.06021 -9.06573
-9.10178 -9.10135
-9.08138 -9.08165
-8.85558 -8.85569
-8.94437 -8.94424
-9.12681 -9.12731
-8.33016 -8.32671
-8.97837 -8.97772
-9.05438 -9.05539
-9.15814 -9.15804
-8.87807 -8.87756
-9.15341 -9.15308
-9.09773 -9.09771
-8.89956 -8.90032
-9.03742 -9.03713
-8.96748 -8.96793
-9.0707 -9.07165
-8.93526 -8.93499
-9.12598 -9.12734
-8.95835 -8.95886
-8.9617 -8.95932
-8.89443 -8.89982
-9.14899 -9.14824
-9.09145 -9.09504
-9.19826 -9.19764
-8.85199 -8.85224
-8.90128 -8.90189
-8.99412 -8.99482
-9.00968 -9.01021
-9.00439 -9.00417
-9.03636 -9.03634
-8.98849 -8.98749
-9.05238 -9.05212
-8.93647 -8.93605
-9.01956 -9.01975
-9.04314 -9.04403
-9.07458 -9.07449
-8.86896 -8.86883
-9.03188 -9.03238
-9.11815 -9.11895
-9.06087 -9.06143
-9.08572 -9.08681
-8.96856 -8.96892
-9.16071 -9.15969
-9.07277 -9.07349
-8.83291 -8.83234
-8.99001 -8.99046
-9.12482 -9.12479
-8.8373 -8.83755
-9.00366 -9.00385
-8.97778 -8.97855
-9.12469 -9.12465
-8.92049 -8.92024
-8.91596 -8.91628
-8.9791 -8.97879
-8.81318 -8.81344
-9.13315 -9.13273
-9.05752 -9.05819
-9.21971 -9.22105
-9.1474 -9.14832
-8.96789 -8.96839
-9.03791 -9.03829
-9.05652 -9.05687
-9.16679 -9.16675
-9.23395 -9.23384
-9.23395 -9.23382
-9.23395 -9.23443
-9.23395 -9.23382
-9.23395 -9.23446
-9.23395 -9.23382
-9.23395 -9.23382
-9.21971 -9.22105
-9.21337 -9.21113
-9.21549 -9.21407
-9.21815 -9.21748
-9.21743 -9.21645
-9.21998 -9.21968
-9.21904 -9.21833
-9.21675 -9.21565
-9.21979 -9.22046
-9.21975 -9.22017
-9.21372 -9.21154
-9.21963 -9.2203
-9.21988 -9.21951
-9.21926 -9.21932
-9.2191 -9.21852
-9.2199 -9.21954
-9.2168 -9.2157
-9.21569 -9.21429
-9.21945 -9.21899
-9.21388 -9.21182
-9.2197 -9.22062
-9.21319 -9.2109
-9.22883 -9.22927
-9.22878 -9.22928
-9.22934 -9.2293
-9.22884 -9.22926
-9.23001 -9.22958
-9.22852 -9.2292
-9.2303 -9.22946
-9.22958 -9.2294
-9.22858 -9.22919
-9.22911 -9.22928
-9.22839 -9.22906
-9.22939 -9.22912
-9.22969 -9.22949
-9.22936 -9.2293
-9.22891 -9.22926
-9.23118 -9.22966
-9.23074 -9.22945
-9.22693 -9.2269
-9.22723 -9.22812
-9.22724 -9.22811
-9.22663 -9.22623
-9.22522 -9.2233
-9.22672 -9.22638
-9.22665 -9.2261
-9.22682 -9.22749
-9.22677 -9.22726
-9.22695 -9.22744
-9.22674 -9.22627
-9.22708 -9.22771
-9.22523 -9.22332
-9.22726 -9.22813
-9.22724 -9.22811
-9.22678 -9.22711
-9.22709 -9.22768
-9.22688 -9.22673
-9.22695 -9.22743
-9.22686 -9.22731
-9.22653 -9.22614
-9.22702 -9.22725
-9.22523 -9.22331
-9.22596 -9.22453
-9.22672 -9.227
-9.22686 -9.22745
-9.2272 -9.22798
-9.22716 -9.22781
-9.2304 -9.22906
-9.2303 -9.22987
-9.23061 -9.23084
-9.2303 -9.22972
-9.23056 -9.23067
-9.23038 -9.2303
-9.23034 -9.2301
-9.23038 -9.23032
-9.2308 -9.23133
-9.23034 -9.22926
-9.23044 -9.22886
-9.23054 -9.23068
-9.23111 -9.23152
-9.23061 -9.23083
-9.23081 -9.23133
-9.23038 -9.23031
-9.23029 -9.22972
-9.23062 -9.23084
-9.23029 -9.22972
-9.2312 -9.23147
-9.23046 -9.22878
-9.16878 -9.16796
-9.11136 -9.11158
-9.03997 -9.04036
-9.11423 -9.11378
-9.00181 -9.00136
-9.06011 -9.05997
-9.08601 -9.08764
-9.16859 -9.16844
-9.13308 -9.13198
-9.21943 -9.21897
-9.22707 -9.2277
-9.02056 -9.02079
-9.21791 -9.21716
-9.23172 -9.23174
-9.23168 -9.23167
-9.2197 -9.22063
-9.21799 -9.21711
-9.22576 -9.22412
-9.22721 -9.22805
-9.22691 -9.22693
-9.23107 -9.22971
-9.22476 -9.22267
-9.23395 -9.23388
-9.23395 -9.23388
-9.23395 -9.23385
-9.23395 -9.23451
-9.23395 -9.23382
-9.23395 -9.23382
-9.23395 -9.23388
-9.21388 -9.21182
-9.21988 -9.22001
-9.21741 -9.21643
-9.21866 -9.21828
-9.2197 -9.22063
-9.2197 -9.22081
-9.21988 -9.21951
-9.21999 -9.21983
-9.21944 -9.21959
-9.21567 -9.21424
-9.21791 -9.21715
-9.21976 -9.22064
-9.21969 -9.22062
-9.2197 -9.22081
-9.21372 -9.21154
-9.2196 -9.22036
-9.22806 -9.22884
-9.22998 -9.22959
-9.22824 -9.22891
-9.22827 -9.22901
-9.22912 -9.22933
-9.22893 -9.22926
-9.22825 -9.22901
-9.22825 -9.22901
-9.2286 -9.22926
-9.23144 -9.22975
-9.22958 -9.2294
-9.22843 -9.229
-9.22899 -9.22927
-9.22944 -9.22936
-9.22884 -9.22927
-9.22909 -9.22929
-9.22822 -9.2289
-9.23092 -9.22972
-9.22939 -9.22931
-9.2272 -9.22804
-9.22721 -9.22805
-9.22687 -9.22671
-9.2268 -9.2274
-9.22686 -9.22731
-9.22651 -9.22586
-9.22686 -9.22745
-9.22649 -9.22553
-9.22686 -9.22745
-9.22683 -9.22675
-9.22691 -9.22758
-9.22726 -9.22813
-9.23154 -9.23162
-9.23096 -9.23134
-9.23094 -9.23124
-9.23147 -9.23159
-9.23095 -9.23124
-9.23058 -9.23071
-9.23135 -9.23152
-9.23168 -9.23167
-9.23045 -9.22885
-9.23094 -9.23125
-9.23041 -9.23036
-9.23085 -9.23109
-9.2303 -9.22954
-9.23034 -9.22926
-9.23042 -9.23034
-9.23083 -9.23141
-9.00446 -9.00474
-9.00127 -9.00172
-9.17179 -9.17146
-9.12464 -9.12402
-9.14941 -9.14916
-9.13247 -9.13324
-9.11773 -9.11768
-8.96619 -8.96712
-9.22884 -9.22926
-9.22716 -9.22781
-9.2269 -9.22692
-9.23029 -9.22973
-9.17585 -9.17608
-9.21859 -9.21778
-9.22445 -9.22229
-9.23083 -9.23141
-9.21716 -9.21611
-8.60816 -8.60869
-9.05753 -9.05984
-8.43769 -8.43121
-8.82551 -8.82473
-8.83566 -8.83809
-8.71227 -8.71034
-8.87159 -8.87132
-9.16211 -9.16204
-8.49112 -8.48789
-8.97229 -8.97233
-9.02169 -9.01934
-8.95616 -8.95361
-9.03742 -9.03179
-8.96173 -8.96264
-8.62604 -8.62905
-8.94745 -8.94804
-9.07416 -9.07373
-9.02256 -9.02199
-9.23367 -9.23279
-9.08627 -9.0844
-9.20243 -9.19962
-8.7596 -8.76019
-8.81187 -8.81083
-9.20414 -9.2039
-9.16343 -9.16367
-8.94299 -8.93585
-8.81926 -8.82014
-8.97037 -8.9705
-8.95976 -8.9614
-8.81033 -8.80978
-8.87926 -8.87884
-9.0675 -9.06422
-8.79906 -8.80164
-8.82486 -8.8259
-8.70731 -8.70844
-9.18275 -9.18137
-8.89008 -8.88931
-8.98038 -8.98117
-8.90371 -8.89952
-8.97457 -8.97523
-8.76529 -8.76488
-9.08542 -9.08571
-9.13867 -9.13973
-8.94678 -8.9483
-9.16551 -9.16534
-9.10081 -9.10157
-8.97528 -8.97457
-8.91513 -8.91453
-9.18731 -9.18706
-9.07887 -9.07898
-9.01172 -9.00873
-9.05113 -9.05204
-9.13349 -9.13308
-8.89899 -8.90009
-9.02882 -9.02913
-8.98549 -8.98585
-8.9639 -8.96431
-9.23381 -9.23383
-9.2243 -9.22202
-9.01251 -9.01507
-9.07513 -9.07587
-9.178 -9.17765
-9.12335 -9.12328
-8.89002 -8.8902
-9.10019 -9.10079
-9.04184 -9.04218
-9.0163 -9.017
-8.90733 -8.90717
-9.06089 -9.06101
-9.10265 -9.10298
-9.11048 -9.11037
-9.23395 -9.23386
-9.01469 -9.0158
-8.84 -8.84092
-9.10607 -9.10638
-8.81531 -8.81593
-8.79408 -8.79501
-9.01146 -9.01054
-9.11733 -9.11744
-9.22857 -9.22936
-9.03308 -9.03342
-9.1323 -9.13256
-9.05942 -9.05892
-8.91292 -8.91244
-8.98835 -8.98827
-9.17728 -9.17621
-9.23395 -9.23441
-9.23395 -9.23421
-9.23395 -9.23388
-9.23395 -9.23384
-9.23395 -9.23381
-9.21981 -9.22047
-9.21751 -9.2166
-9.21495 -9.21331
-9.21829 -9.21765
-9.21941 -9.21897
-9.21609 -9.21476
-9.21879 -9.21835
-9.21945 -9.21961
-9.21725 -9.21627
-9.21568 -9.21427
-9.21238 -9.2098
-9.21943 -9.21934
-9.21991 -9.22021
-9.21674 -9.21565
-9.21404 -9.21207
-9.21387 -9.2118
-9.21988 -9.22019
-9.21299 -9.2106
-9.21968 -9.22068
-9.23116 -9.22964
-9.22958 -9.2294
-9.22854 -9.22927
-9.22906 -9.22927
-9.22864 -9.22926
-9.22893 -9.22926
-9.23034 -9.22959
-9.22865 -9.22924
-9.22879 -9.22928
-9.22884 -9.22926
-9.22851 -9.22918
-9.2287 -9.2292
-9.23014 -9.22955
-9.22913 -9.22933
-9.22823 -9.22891
-9.22999 -9.22959
-9.22825 -9.22901
-9.22899 -9.22928
-9.23025 -9.22961
-9.2285 -9.22917
-9.22495 -9.22296
-9.22476 -9.22267
-9.22666 -9.22656
-9.2269 -9.22693
-9.22673 -9.22627
-9.22617 -9.22495
-9.22691 -9.22758
-9.22706 -9.22743
-9.22702 -9.22743
-9.22486 -9.22285
-9.22701 -9.22762
-9.22455 -9.22243
-9.22707 -9.22771
-9.22678 -9.2271
-9.22707 -9.2277
-9.22561 -9.22385
-9.22682 -9.22741
-9.22682 -9.22741
-9.22662 -9.22647
-9.22645 -9.22574
-9.2258 -9.22421
-9.22562 -9.22388
-9.22693 -9.22726
-9.22685 -9.22702
-9.22718 -9.22796
-9.22681 -9.22739
-9.2308 -9.23133
-9.23063 -9.2308
-9.23055 -9.23066
-9.23048 -9.23055
-9.23043 -9.23042
-9.23074 -9.23112
-9.23034 -9.22925
-9.23048 -9.23053
-9.23086 -9.23127
-9.23033 -9.22935
-9.23095 -9.23125
-9.23078 -9.23119
-9.23055 -9.23067
-9.23034 -9.22926
-9.23062 -9.23083
-9.23058 -9.23071
-9.2303 -9.22946
-9.23047 -9.22873
-9.18268 -9.18237
-9.12002 -9.11986
-9.09714 -9.09621
-9.23024 -9.22962
-9.01456 -9.01475
-9.23132 -9.23148
-9.21975 -9.22017
-9.23079 -9.23099
-8.97217 -8.97217
-9.23089 -9.23141
-9.21612 -9.21488
-9.22683 -9.22751
-9.22701 -9.22742
-9.22894 -9.22926
-9.23395 -9.2339
-9.23395 -9.23387
-9.23395 -9.23421
-9.22893 -9.22971
-9.23395 -9.23406
-9.23395 -9.23384
-9.23395 -9.23384
-9.23395 -9.23385
-9.21716 -9.21611
-9.2158 -9.21444
-9.21511 -9.21354
-9.21972 -9.22096
-9.21989 -9.21952
-9.21436 -9.21251
-9.21614 -9.2149
-9.21716 -9.21609
-9.2199 -9.22003
-9.21857 -9.21777
-9.21857 -9.21777
-9.21942 -9.21933
-9.2197 -9.22063
-9.21975 -9.22064
-9.21317 -9.21087
-9.21548 -9.21406
-9.21493 -9.21329
-9.21495 -9.21332
-9.21389 -9.21183
-9.21436 -9.2125
-9.21752 -9.21662
-9.21941 -9.21931
-9.23002 -9.22959
-9.22894 -9.22928
-9.22825 -9.22901
-9.22884 -9.22926
-9.22938 -9.22912
-9.23043 -9.22936
-9.22905 -9.22908
-9.22908 -9.22927
-9.22957 -9.22939
-9.22915 -9.22925
-9.22854 -9.22927
-9.22959 -9.22922
-9.23091 -9.22972
-9.22824 -9.22891
-9.22894 -9.22928
-9.22943 -9.22936
-9.22883 -9.22927
-9.22998 -9.22951
-9.22935 -9.2293
-9.22853 -9.22925
-9.2301 -9.2295
-9.22854 -9.22927
-9.22932 -9.22928
-9.23042 -9.22935
-9.22835 -9.2289
-9.2285 -9.22926
-9.22847 -9.22926
-9.22666 -9.22607
-9.22608 -9.2247
-9.22712 -9.22789
-9.22522 -9.2233
-9.22678 -9.22711
-9.22707 -9.2277
-9.22666 -9.22678
-9.22652 -9.22585
-9.22684 -9.22701
-9.22666 -9.22655
-9.22661 -9.22645
-9.22496 -9.22297
-9.23089 -9.23141
-9.23102 -9.23125
-9.23114 -9.23135
-9.23065 -9.23091
-9.23047 -9.23049
-9.23074 -9.23099
-9.23042 -9.22895
-9.23126 -9.23148
-9.23048 -9.23054
-9.23075 -9.231
-9.23063 -9.2308
-9.23067 -9.231
-9.23031 -9.22996
-9.23165 -9.23169
-9.14407 -9.14435
-9.00222 -9.0021
-9.10993 -9.11012
-9.09986 -9.10011
-9.15882 -9.15917
-9.14977 -9.14981
-9.15715 -9.15702
-9.17237 -9.17224
-9.20019 -9.1996
-9.23009 -9.22949
-9.22885 -9.22926
-9.22873 -9.22923
-9.22513 -9.22314
-9.22968 -9.22933
-9.22608 -9.2247
-9.23089 -9.23141
-9.23102 -9.23125
-9.23094 -9.23125
-9.23395 -9.23425
-8.5994 -8.60012
-8.40273 -8.40289
-8.89243 -8.89556
-8.28733 -8.29005
-8.61417 -8.6116
-8.82295 -8.82854
-9.04215 -9.04523
-8.81133 -8.79968
-9.11051 -9.11038
-8.78525 -8.78573
-8.95186 -8.96461
-8.91702 -8.91876
-9.01192 -9.00891
-8.93167 -8.92985
-8.63263 -8.63098
-8.79718 -8.79777
-8.76603 -8.76793
-8.82619 -8.82833
-8.47024 -8.46611
-8.98282 -8.97917
-8.99263 -8.99348
-8.77256 -8.77348
-9.00065 -9.00068
-8.86026 -8.8595
-8.82896 -8.82982
-8.83552 -8.83584
-9.04256 -9.04124
-8.9689 -8.9691
-8.96171 -8.96179
-9.02361 -9.02419
-8.92222 -8.92268
-8.91277 -8.91251
-9.17227 -9.17267
-9.18074 -9.18113
-9.10476 -9.10622
-9.03862 -9.0401
-8.91403 -8.91185
-9.10368 -9.10395
-8.98358 -8.98339
-9.11074 -9.11035
-9.16562 -9.1657
-8.93859 -8.93914
-9.2062 -9.20622
-8.82966 -8.82981
-9.09482 -9.09529
-8.86286 -8.86228
-9.23395 -9.23394
-9.14279 -9.14257
-9.10394 -9.10427
-9.01513 -9.01516
-9.05964 -9.06032
-8.76159 -8.76252
-8.89731 -8.89766
-8.91665 -8.91663
-9.0384 -9.03955
-9.07458 -9.07459
-9.04618 -9.04624
-9.15904 -9.15936
-8.98667 -8.98673
-9.04995 -9.05007
-9.07189 -9.07217
-9.22684 -9.22701
-8.9869 -8.9868
-8.96931 -8.96994
-9.14254 -9.14268
-9.001 -9.002
-9.12008 -9.11995
-9.15946 -9.1599
-8.90982 -8.9102
-9.06869 -9.06874
-8.98085 -8.98087
-9.05068 -9.05109
-9.12181 -9.12194
-9.13268 -9.13276
-9.01764 -9.01796
-8.96051 -8.96055
-8.90949 -8.91022
-9.04442 -9.04534
-9.02612 -9.02657
-9.06399 -9.06355
-9.11876 -9.11882
-9.06824 -9.06855
-9.22726 -9.22813
-9.23395 -9.23402
-9.23395 -9.23382
-9.21403 -9.2133
-9.23395 -9.23397
-9.23395 -9.23394
-9.23395 -9.23387
-9.23395 -9.23382
-9.23395 -9.23382
-9.21217 -9.20953
-9.21944 -9.21934
-9.21912 -9.2188
-9.21751 -9.21661
-9.21892 -9.21869
-9.2199 -9.21954
-9.21681 -9.21572
-9.21828 -9.21763
-9.21859 -9.21779
-9.21751 -9.21659
-9.21976 -9.22018
-9.21511 -9.21353
-9.2196 -9.22036
-9.21921 -9.21933
-9.21319 -9.21089
-9.2158 -9.21444
-9.21912 -9.21881
-9.21857 -9.21777
-9.21964 -9.22009
-9.21828 -9.21763
-9.21966 -9.21961
-9.21673 -9.21564
-9.21802 -9.21714
-9.21976 -9.22018
-9.21921 -9.21932
-9.2285 -9.22917
-9.22866 -9.22924
-9.22874 -9.22925
-9.22908 -9.22929
-9.22913 -9.22933
-9.22849 -9.22926
-9.229 -9.22928
-9.23063 -9.22961
-9.2298 -9.22931
-9.22827 -9.22901
-9.2297 -9.22936
-9.23031 -9.22946
-9.22923 -9.22929
-9.22849 -9.22926
-9.22872 -9.22927
-9.22919 -9.22925
-9.22865 -9.22924
-9.22958 -9.22941
-9.22665 -9.22611
-9.22723 -9.22812
-9.2266 -9.22645
-9.22718 -9.22796
-9.22693 -9.22726
-9.22718 -9.22796
-9.2265 -9.22553
-9.22685 -9.22754
-9.22521 -9.2233
-9.2265 -9.22583
-9.22699 -9.22764
-9.22666 -9.22654
-9.22718 -9.22795
-9.22689 -9.22756
-9.23125 -9.23148
-9.2312 -9.23147
-9.23077 -9.23098
-9.23048 -9.23054
-9.23089 -9.23141
-9.23077 -9.2312
-9.23121 -9.23146
-9.23111 -9.23151
-9.23081 -9.23133
-9.23033 -9.23009
-9.23062 -9.23083
-9.23041 -9.23037
-9.23086 -9.23136
-8.98916 -8.98842
-9.00837 -9.00829
-9.19406 -9.19421
-9.02257 -9.02266
-9.06234 -9.06281
-9.06496 -9.06488
-9.04293 -9.04304
-8.96183 -8.96233
-9.04488 -9.04554
-8.92881 -8.92853
-8.90443 -8.9046
-9.11146 -9.11159
-9.2175 -9.21658
-9.22719 -9.22796
-9.2266 -9.22645
-9.22619 -9.22485
-9.2186 -9.21791
-9.23395 -9.23388
-9.22703 -9.22776
-9.23395 -9.23384
-9.23395 -9.23389
-9.23395 -9.23382
-9.23395 -9.23388
-9.21971 -9.22105
-9.23395 -9.23387
-9.23395 -9.23385
-9.23395 -9.23382
-9.23395 -9.2344
-9.23395 -9.23387
-9.21968 -9.22068
-9.21389 -9.21182
-9.21969 -9.21941
-9.2151 -9.21353
-9.21988 -9.22019
-9.21813 -9.21736
-9.21551 -9.2141
-9.2197 -9.22063
-9.2158 -9.21445
-9.21388 -9.21181
-9.21974 -9.22017
-9.21858 -9.21778
-9.2196 -9.22035
-9.21971 -9.22105
-9.23074 -9.22945
-9.22834 -9.22891
-9.22827 -9.22901
-9.22878 -9.22925
-9.22867 -9.22926
-9.22883 -9.22927
-9.22943 -9.22936
-9.22956 -9.22938
-9.22909 -9.22914
-9.22858 -9.22919
-9.22838 -9.22894
-9.22857 -9.22925
-9.22943 -9.22936
-9.23043 -9.22968
-9.22821 -9.22889
-9.2265 -9.22553
-9.22725 -9.2282
-9.22709 -9.22767
-9.22605 -9.22459
-9.22694 -9.22742
-9.22666 -9.22613
-9.22581 -9.22422
-9.22716 -9.22781
-9.22725 -9.2282
-9.22445 -9.22228
-9.22546 -9.22368
-9.22688 -9.22756
-9.22617 -9.22494
-9.22606 -9.22461
-9.22718 -9.22795
-9.22685 -9.22753
-9.22703 -9.22774
-9.22726 -9.22813
-9.23053 -9.23066
-9.23131 -9.23158
-9.23076 -9.23126
-9.23034 -9.2301
-9.23114 -9.23135
-9.23086 -9.23109
-9.23111 -9.23151
-9.2312 -9.23147
-9.23165 -9.23169
-9.2314 -9.23154
-9.23078 -9.23119
-9.23096 -9.23133
-9.2308 -9.23133
-9.23062 -9.23083
-9.23149 -9.23161
-9.23085 -9.23109
-9.23165 -9.23169
-9.06897 -9.06994
-9.14329 -9.14313
-9.14429 -9.14467
-9.08333 -9.08365
-9.0691 -9.06941
-9.04679 -9.04718
-9.10528 -9.10566
-9.05658 -9.05729
-9.22662 -9.22646
-9.21337 -9.21113
-9.2264 -9.22536
-9.03869 -9.04007
-9.22959 -9.22922
-9.23046 -9.22878
-9.21616 -9.21493
-9.21976 -9.22018
-9.23395 -9.23436
-9.16219 -9.16192
-9.1358 -9.13556
-9.227 -9.22726
-9.21789 -9.21714
-9.22698 -9.22763
-9.23131 -9.23148
-9.23395 -9.23388
-9.04908 -9.04929
-9.02547 -9.02519
-9.05191 -9.05242
-9.14249 -9.14311
-9.15104 -9.15191
-9.02163 -9.02299
-9.19778 -9.19828
-9.1975 -9.19818
-9.19244 -9.19361
-9.19063 -9.19118
-9.19107 -9.19186
-9.19201 -9.1925
-9.18939 -9.1902
-9.18244 -9.18324
-9.19112 -9.19169
-9.18674 -9.18708
-9.16031 -9.16112
-9.17065 -9.171
-9.16451 -9.16466
-9.1639 -9.1633
-9.15891 -9.15892
-9.16655 -9.16605
-9.11089 -9.11078
-9.11395 -9.1139
-9.13198 -9.13286
-9.10665 -9.10736
-9.12443 -9.12379
-9.1152 -9.11605
-9.11226 -9.11236
-9.12232 -9.12276
-9.08468 -9.08542
-9.06403 -9.06469
-9.0742 -9.07404
-9.07025 -9.06993
-9.09893 -9.09965
-9.09719 -9.09757
-9.07962 -9.0798
-9.09158 -9.08968
-9.05358 -9.0536
-9.07439 -9.07548
-9.01664 -9.01936
-9.03722 -9.03773
-9.04323 -9.04377
-9.05074 -9.04994
-9.0528 -9.05345
-9.16245 -9.1632
-9.11847 -9.11877
-9.10817 -9.10841
-9.12368 -9.12459
-9.13551 -9.13615
-9.19391 -9.19477
-9.08654 -9.08673
-9.1094 -9.111
-9.04949 -9.0511
-9.12303 -9.12308
-9.19311 -9.19393
-9.19208 -9.19275
-9.19138 -9.1923
-9.19112 -9.19179
-9.19486 -9.19561
-9.19424 -9.19475
-9.1923 -9.19307
-9.19029 -9.19111
-9.18876 -9.18951
-9.15873 -9.15948
-9.16233 -9.16308
-9.15721 -9.15718
-9.14245 -9.143
-9.15634 -9.15736
-9.15481 -9.15511
-9.15508 -9.15469
-9.1548 -9.15524
-9.16511 -9.16586
-9.10862 -9.10957
-9.11896 -9.11915
-9.11192 -9.11356
-9.11527 -9.11731
-9.12868 -9.1294
-9.10712 -9.1085
-9.11549 -9.11709
-9.05718 -9.05896
-9.10621 -9.10606
-9.07804 -9.07852
-9.09987 -9.09986
-9.08046 -9.08125
-9.08795 -9.08855
-9.04179 -9.04175
-9.04135 -9.04162
-9.05739 -9.05799
-9.06773 -9.06657
-9.04336 -9.04307
-9.0732 -9.07247
-9.07031 -9.07013
-9.06904 -9.06875
-9.06483 -9.06456
-9.18351 -9.18485
-9.15382 -9.15443
-9.19038 -9.19151
-9.14352 -9.14408
-9.03887 -9.03994
-9.18294 -9.18335
-9.0528 -9.05156
-9.10786 -9.10833
-9.15414 -9.15306
-9.18536 -9.18625
-9.19037 -9.19113
-9.18886 -9.18905
-9.18744 -9.18773
-9.18203 -9.18289
-9.14624 -9.14693
-9.14402 -9.14503
-9.15002 -9.15078
-9.16167 -9.16272
-9.15857 -9.15784
-9.11728 -9.11756
-9.09627 -9.09513
-9.11877 -9.11838
-9.11452 -9.11441
-9.13297 -9.13297
-9.11468 -9.1148
-9.13937 -9.14023
-9.141 -9.14102
-9.07905 -9.07884
-9.08542 -9.08541
-9.08153 -9.08158
-9.03899 -9.03915
-9.02519 -9.02677
-9.05588 -9.05681
-9.1681 -9.16788
-9.05875 -9.05908
-9.11061 -9.11062
-9.09208 -9.09221
-9.19407 -9.19484
-9.09385 -9.09394
-9.04368 -9.0451
-9.1928 -9.19354
-9.18629 -9.18718
-9.18439 -9.18503
-9.18508 -9.18585
-9.19197 -9.19252
-9.19196 -9.19267
-9.19292 -9.19381
-9.18568 -9.18643
-9.19173 -9.19252
-9.18997 -9.1903
-9.16104 -9.16184
-9.15577 -9.15681
-9.1612 -9.16175
-9.16428 -9.16519
-9.15267 -9.15272
-9.16147 -9.16195
-9.15397 -9.15422
-9.16504 -9.16505
-9.15656 -9.15675
-9.16878 -9.1695
-9.15292 -9.15325
-9.15497 -9.15501
-9.15923 -9.15919
-9.1455 -9.14534
-9.16204 -9.16268
-9.12018 -9.12101
-9.10817 -9.1082
-9.11687 -9.11727
-9.12867 -9.12899
-9.1008 -9.10079
-9.12426 -9.12466
-9.11871 -9.12001
-9.12929 -9.12926
-9.09363 -9.09493
-9.06964 -9.0707
-9.07833 -9.07863
-9.09118 -9.09374
-9.1035 -9.10276
-9.07103 -9.07267
-9.10991 -9.11127
-9.10413 -9.10507
-9.07591 -9.07675
-9.02783 -9.02826
-9.05352 -9.05222
-9.07378 -9.07479
-9.05506 -9.0555
-9.06855 -9.068
-9.0703 -9.07217
-9.13775 -9.13872
-9.06683 -9.06796
-8.9932 -8.99573
-9.12055 -9.12055
-9.09196 -9.09246
-9.19257 -9.19347
-9.08623 -9.08584
-9.15519 -9.15511
-9.04902 -9.04807
-9.07301 -9.07303
-9.11511 -9.11538
-9.07451 -9.07469
-9.06716 -9.06772
-9.08343 -9.08303
-9.1928 -9.19353
-9.1915 -9.19217
-9.18615 -9.18695
-9.19161 -9.19271
-9.18846 -9.18941
-9.18864 -9.18918
-9.18977 -9.19041
-9.18579 -9.18641
-9.15551 -9.15616
-9.14764 -9.14821
-9.15806 -9.15782
-9.15247 -9.15367
-9.15638 -9.15707
-9.15247 -9.15274
-9.16555 -9.1661
-9.1551 -9.15528
-9.11062 -9.1102
-9.11047 -9.11058
-9.10837 -9.10815
-9.11032 -9.11147
-9.09633 -9.09805
-9.11859 -9.11961
-9.1147 -9.11526
-9.0936 -9.0954
-9.10225 -9.10255
-9.08061 -9.08134
-9.09975 -9.09966
-9.10212 -9.10189
-9.05563 -9.05507
-9.11413 -9.11406
-9.09089 -9.09072
-9.09251 -9.09227
-9.07692 -9.07677
-9.04762 -9.0476
-9.04583 -9.0447
-9.07262 -9.07216
-9.02522 -9.02728
-9.06626 -9.06569
-9.06643 -9.06721
-9.0643 -9.0632
-9.19553 -9.19629
-9.13742 -9.13746
-9.19089 -9.19144
-9.12277 -9.1229
-9.04103 -9.04107
-9.04077 -9.04169
-9.06449 -9.06446
-9.05378 -9.05458
-9.16002 -9.15984
-9.19362 -9.19467
-9.19175 -9.19207
-9.18657 -9.1872
-9.18772 -9.18861
-9.18912 -9.18988
-9.19125 -9.19193
-9.18737 -9.1882
-9.18704 -9.18764
-9.15033 -9.15058
-9.15606 -9.15644
-9.15411 -9.15342
-9.15643 -9.15508
-9.15759 -9.15692
-9.11106 -9.11148
-9.12162 -9.12182
-9.12418 -9.12414
-9.12277 -9.12194
-9.10396 -9.10438
-9.12585 -9.12692
-9.12833 -9.12836
-9.11181 -9.11284
-9.14093 -9.14184
-9.06702 -9.06816
-9.07859 -9.07992
-9.08185 -9.08002
-9.07502 -9.07531
-9.11143 -9.11149
-9.08281 -9.08338
-9.07838 -9.07771
-9.10648 -9.10694
-9.08837 -9.08836
-9.08078 -9.0807
-9.07667 -9.07658
-9.11964 -9.11931
-9.04918 -9.04911
-9.04858 -9.0494
-9.04976 -9.04846
-9.073 -9.07442
-9.03819 -9.03679
-9.08522 -9.08571
-9.11675 -9.11684
-9.05774 -9.05834
-9.19153 -9.19213
-9.07885 -9.07968
-9.0838 -9.0824
-9.02092 -9.02191
-9.04336 -9.04349
-9.15588 -9.15609
-9.08286 -9.08298
-9.18388 -9.18473
-9.19017 -9.19094
-9.18469 -9.18507
-9.19045 -9.19088
-9.1943 -9.19466
-9.19041 -9.19094
-9.19193 -9.19256
-9.18956 -9.19056
-9.19252 -9.19292
-9.18834 -9.18912
-9.18398 -9.18466
-9.15254 -9.15297
-9.16595 -9.16588
-9.14321 -9.14286
-9.15347 -9.15288
-9.16225 -9.1624
-9.16002 -9.1598
-9.16764 -9.16807
-9.12498 -9.12554
-9.10917 -9.11023
-9.11189 -9.11174
-9.13085 -9.13077
-9.15357 -9.15407
-9.10491 -9.10577
-9.09189 -9.09203
-9.07926 -9.08057
-9.05918 -9.06004
-9.09175 -9.09184
-9.04433 -9.04532
-9.05774 -9.05909
-9.04092 -9.04075
-9.04778 -9.04757
-9.05311 -9.05491
-9.0476 -9.04649
-9.04479 -9.04309
-9.05663 -9.05656
-9.07464 -9.07481
-9.00839 -9.00958
-9.16211 -9.16291
-9.14084 -9.1415
-9.04865 -9.04937
-9.18801 -9.18882
-9.00543 -9.00542
-9.19596 -9.19656
-9.19851 -9.19915
-9.18492 -9.18573
-9.18941 -9.18998
-9.19392 -9.19438
-9.19493 -9.1955
-9.18824 -9.18867
-9.19312 -9.19369
-9.18269 -9.18355
-9.19484 -9.19544
-9.19114 -9.1918
-9.16422 -9.16474
-9.16774 -9.16864
-9.16805 -9.16804
-9.13956 -9.14
-9.15571 -9.15597
-9.15368 -9.15397
-9.15951 -9.16003
-9.13524 -9.13534
-9.10963 -9.10967
-9.13695 -9.13692
-9.11629 -9.1164
-9.12341 -9.12484
-9.0983 -9.09862
-9.12733 -9.12815
-9.10998 -9.11081
-9.14256 -9.1434
-9.13295 -9.13351
-9.11694 -9.1168
-9.08881 -9.08869
-9.08409 -9.08511
-9.06943 -9.06976
-9.08621 -9.08533
-9.10219 -9.10427
-9.10866 -9.10907
-9.06713 -9.06642
-9.0799 -9.08112
-9.08111 -9.08121
-9.05894 -9.0584
-9.0346 -9.03455
-9.06208 -9.06201
-9.05264 -9.05246
-9.04547 -9.04568
-9.04215 -9.04141
-9.03005 -9.02941
-9.04113 -9.04239
-9.15245 -9.15184
-9.15959 -9.15944
-9.19045 -9.19109
-9.04762 -9.04807
-9.1829 -9.18337
-9.06176 -9.06026
-9.13957 -9.13951
-8.99533 -8.99783
-9.0577 -9.05829
-9.09659 -9.09625
-9.18962 -9.19053
-9.19519 -9.19616
-9.18737 -9.18828
-9.18988 -9.19069
-9.18994 -9.1903
-9.18583 -9.1868
-9.18884 -9.18931
-9.15189 -9.15243
-9.14208 -9.14292
-9.17194 -9.17257
-9.14791 -9.14844
-9.14271 -9.14325
-9.15873 -9.15803
-9.15517 -9.15517
-9.16266 -9.16303
-9.13501 -9.13564
-9.11556 -9.11648
-9.11007 -9.1108
-9.13707 -9.13713
-9.11812 -9.11822
-9.11241 -9.11283
-9.10778 -9.10801
-9.11922 -9.1199
-9.11957 -9.11932
-9.12844 -9.12985
-9.12938 -9.12981
-9.11647 -9.11678
-9.10809 -9.10801
-9.11139 -9.11259
-9.12121 -9.12217
-9.08783 -9.0874
-9.05303 -9.05517
-9.07803 -9.07712
-9.06799 -9.06822
-9.10284 -9.10358
-9.11649 -9.11674
-9.10044 -9.10216
-9.07903 -9.07765
-9.08752 -9.08762
-9.09636 -9.09674
-9.10821 -9.10795
-9.03154 -9.03317
-9.0737 -9.07326
-9.02137 -9.0195
-9.07512 -9.07455
-9.06082 -9.06161
-9.06951 -9.0688
-9.02478 -9.02656
-9.0606 -9.05935
-9.03744 -9.0371
-9.057 -9.05793
-9.02947 -9.03054
-9.08563 -9.08496
-9.18809 -9.18869
-9.15804 -9.15865
-9.08494 -9.08514
-9.15568 -9.15712
-9.03693 -9.03677
-9.15917 -9.15872
-9.03401 -9.03399
-9.04342 -9.04432
-9.01908 -9.01688
-9.05163 -9.05252
-9.04277 -9.04204
-9.12546 -9.12534
-9.11995 -9.12025
-9.08893 -9.08799
-9.18718 -9.18813
-9.18566 -9.18631
-9.19186 -9.19271
-9.1901 -9.19073
-9.18829 -9.18876
-9.19343 -9.19444
-9.18283 -9.18364
-9.19507 -9.19544
-9.14473 -9.14545
-9.15139 -9.15164
-9.16489 -9.16542
-9.15076 -9.15138
-9.15435 -9.15494
-9.16292 -9.16371
-9.16211 -9.16292
-9.15457 -9.15446
-9.15464 -9.15446
-9.14803 -9.1463
-9.16267 -9.16154
-9.118 -9.11754
-9.14359 -9.14399
-9.13893 -9.13933
-9.10311 -9.10276
-9.11962 -9.11982
-9.12827 -9.12973
-9.1063 -9.10664
-9.1262 -9.12712
-9.1315 -9.13225
-9.07664 -9.07875
-9.09688 -9.09705
-9.06327 -9.06432
-9.08571 -9.08581
-9.09174 -9.09227
-9.09469 -9.09538
-9.07373 -9.07407
-9.06012 -9.05958
-9.02931 -9.03023
-9.0658 -9.06572
-9.04378 -9.04343
-9.06244 -9.06275
-9.06027 -9.06036
