0.000779766 -6.60479e-10
0.000893643 0.000164329
0.0011307 0.000520148
0.00147487 0.000957139
0.00190584 0.00145533
0.00232256 0.00194053
0.0027013 0.00237616
0.00312721 0.00286543
0.00341234 0.00318119
0.00373563 0.00351471
0.00410121 0.00391503
0.00438113 0.00423656
0.00463416 0.00451764
0.00496163 0.00489799
0.00531476 0.0052993
0.00567876 0.0057037
0.00583871 0.00587306
0.00606297 0.00609122
0.00633649 0.00632531
0.00658954 0.0065526
0.00696412 0.00691681
0.00738397 0.00732979
0.0079143 0.00783811
0.00841268 0.00835927
0.00874472 0.00869268
0.00892229 0.00887323
0.00908899 0.0090359
0.00930597 0.0092367
0.00961836 0.00952109
0.00985376 0.00974034
0.00997247 0.00988138
0.0100913 0.0100102
0.0103894 0.01032
0.0105734 0.0104982
0.0106514 0.0105716
0.0107265 0.0106358
0.0106982 0.0106058
0.0106141 0.0105242
0.0105245 0.0104434
0.010491 0.0104258
0.0103228 0.010278
0.010256 0.0102002
0.0103916 0.010334
0.0106084 0.0105556
0.0107121 0.0106699
0.0108351 0.0108113
0.0110187 0.0109965
0.0112425 0.0112292
0.0113965 0.0113724
0.0115675 0.0115423
0.000787204 1.76234e-06
0.00107601 0.000332836
0.00159916 0.000932725
0.00225373 0.00164708
0.00290692 0.00234378
0.00362874 0.00311814
0.00426222 0.00379779
0.00502286 0.00458141
0.00570301 0.00536066
0.0064561 0.00628828
0.00727367 0.00723348
0.00794287 0.00799846
0.00861765 0.00872266
0.00919504 0.00928596
0.00954189 0.00962793
0.00990561 0.00998825
0.0101274 0.0101888
0.0101569 0.0102268
0.0102429 0.0102923
0.0106477 0.0106578
0.0109534 0.0109525
0.0111976 0.011207
0.0113387 0.0112935
0.0116407 0.0115529
0.0118979 0.011825
0.0121551 0.0121307
0.0124465 0.0124187
0.0127823 0.0127002
0.0130198 0.0129607
0.0132125 0.0131625
0.0133451 0.013286
0.0138927 0.0138131
0.0145907 0.0144691
0.015381 0.015227
0.0162462 0.0160071
0.0171803 0.0168237
0.0178561 0.0174736
0.0184116 0.0180306
0.0184715 0.0180999
0.0184714 0.0180826
0.018654 0.0182572
0.0185765 0.0181745
0.0183931 0.0179924
0.018385 0.0179415
0.0185447 0.018018
0.0189421 0.0182523
0.0192918 0.0184665
0.0195094 0.0186089
0.0197834 0.0188248
0.0202742 0.0192503
0.000789541 3.44693e-06
0.00121641 0.000494549
0.00200549 0.00136324
0.00300351 0.00240043
0.00400372 0.00342487
0.00509442 0.00457423
0.00603946 0.00557699
0.00717528 0.00674651
0.00820179 0.00791904
0.00934288 0.00930581
0.0105827 0.0107218
0.0115944 0.0118679
0.0125924 0.0129151
0.013435 0.0137228
0.0139289 0.0141966
0.0144783 0.0147218
0.0148257 0.0150256
0.0148872 0.0150955
0.0150174 0.0151875
0.0156166 0.015732
0.0160165 0.0161034
0.0163399 0.0164101
0.0165161 0.0165248
0.0169254 0.0168792
0.0172853 0.0172461
0.0176519 0.0176618
0.018087 0.0180795
0.0185762 0.0184994
0.018897 0.0188535
0.0191693 0.0191519
0.0193688 0.0193644
0.0201976 0.0201753
0.0212299 0.0211549
0.0223788 0.0222446
0.0236309 0.023383
0.0249797 0.0245673
0.0259503 0.0255267
0.026701 0.0262968
0.0266698 0.0262848
0.0265893 0.026178
0.0267741 0.0263679
0.026634 0.0262083
0.0263179 0.0259127
0.0262631 0.0258387
0.0264331 0.0259013
0.0269271 0.0261559
0.0274135 0.0264167
0.0276819 0.0265472
0.0280115 0.0267922
0.0287153 0.0274172
0.000791806 5.13188e-06
0.00135577 0.000653074
0.00241095 0.00178113
0.0037549 0.00314218
0.00510634 0.0045023
0.00656634 0.00602589
0.00781961 0.00735199
0.00933083 0.00891048
0.0107061 0.010481
0.0122403 0.0123273
0.0139082 0.0142142
0.0152656 0.0157194
0.0165804 0.0170854
0.0176843 0.0181543
0.0183258 0.0187613
0.0190723 0.0194585
0.0195617 0.0198855
0.0196686 0.0200095
0.0198493 0.0201553
0.0206485 0.0208775
0.0211268 0.0212826
0.0215198 0.021645
0.021714 0.0217692
0.0222085 0.0221937
0.0226552 0.0226376
0.0231229 0.0231432
0.023701 0.0236981
0.0243424 0.0242404
0.0247408 0.0246892
0.0250949 0.025104
0.0253716 0.0254099
0.0264874 0.0265059
0.0278486 0.027815
0.0293475 0.0292591
0.0309609 0.0307216
0.0326974 0.0322491
0.0339343 0.0334927
0.0348435 0.0344327
0.0346698 0.0342687
0.0344503 0.0340417
0.034592 0.0342228
0.0343766 0.0339793
0.0339238 0.0335564
0.0338255 0.0334429
0.0340126 0.0335023
0.0346062 0.0337918
0.035239 0.0341322
0.0355549 0.0342714
0.0359326 0.0345324
0.0368619 0.0353546
0.000786337 5.69758e-06
0.00144239 0.000793618
0.00279444 0.00229826
0.0046438 0.00427201
0.00697296 0.006721
0.00951634 0.00944146
0.0118435 0.0119083
0.0140853 0.0142402
0.0164945 0.0165867
0.0189329 0.0189041
0.0210315 0.0209475
0.0230126 0.0228363
0.0244903 0.024359
0.0254571 0.0255139
0.0265813 0.0267733
0.027981 0.0282592
0.0298765 0.0301626
0.0315192 0.0317606
0.0316147 0.0319238
0.0324105 0.0329293
0.0333766 0.034073
0.0342353 0.0350892
0.0355527 0.0365538
0.0362507 0.0373662
0.0366559 0.0378102
0.0381049 0.0391176
0.0390159 0.0399804
0.0392771 0.0402036
0.0400142 0.040957
0.0409551 0.0418735
0.0415376 0.0424113
0.0421063 0.0428238
0.0428945 0.0434653
0.0434706 0.0438566
0.0443796 0.0447507
0.0455652 0.0459433
0.0465869 0.04687
0.0468947 0.0471826
0.0477401 0.0479593
0.0480891 0.0483594
0.0485425 0.0489339
0.0492311 0.0497843
0.0499505 0.050579
0.0499998 0.0506899
0.0507939 0.0515594
0.0508036 0.0515134
0.0506122 0.0511879
0.0504903 0.0510833
0.0504071 0.0511236
0.0504706 0.051268
0.000795791 8.50243e-06
0.00163272 0.00096222
0.00322084 0.00259596
0.00526254 0.00462013
0.00732664 0.00666255
0.00952575 0.00893821
0.0113896 0.010916
0.0136594 0.0132705
0.015744 0.0156327
0.0180814 0.0183972
0.0206231 0.0212265
0.0226757 0.0235088
0.0246095 0.0255221
0.0262229 0.027056
0.0271507 0.0278828
0.0283081 0.0289733
0.0291063 0.0296875
0.0293382 0.0299462
0.0296363 0.0301736
0.0308362 0.0312178
0.0314306 0.0316679
0.0319502 0.0321568
0.032164 0.0322222
0.032791 0.0327483
0.033389 0.0333614
0.0340539 0.0340534
0.0349027 0.0348055
0.0358238 0.0355777
0.0363417 0.0362022
0.0368411 0.0368207
0.0372716 0.0372798
0.0389459 0.0389345
0.040943 0.0409108
0.043087 0.043039
0.0453676 0.045184
0.0478256 0.0473954
0.0495733 0.0491848
0.0507388 0.0504509
0.0501938 0.0499491
0.049631 0.0493568
0.0496582 0.0494229
0.0493398 0.0490706
0.0486703 0.0484542
0.0484538 0.0482697
0.0485961 0.0482599
0.0492989 0.0485379
0.0502155 0.0490379
0.0506228 0.0491756
0.051063 0.049469
0.0524661 0.0507306
0.00079776 1.01879e-05
0.00177059 0.00111355
0.00362557 0.00299801
0.00601897 0.00535928
0.00844369 0.00774864
0.0110123 0.0104032
0.0131802 0.0127071
0.0158319 0.0154695
0.0182765 0.0182261
0.0210235 0.0214467
0.0240077 0.0247685
0.0264104 0.0274414
0.0286421 0.0297648
0.0304951 0.0314988
0.0315508 0.0324307
0.0329194 0.0337141
0.0338883 0.0345803
0.0341963 0.0349222
0.0345544 0.0351935
0.0359446 0.0364155
0.036569 0.0368684
0.0371328 0.0373988
0.0373446 0.0374256
0.0380235 0.0379787
0.0386875 0.0386503
0.0394438 0.039408
0.0404194 0.0402484
0.041466 0.0411339
0.0420348 0.0418444
0.0426104 0.0425697
0.0431241 0.0431357
0.0450717 0.0450728
0.0473718 0.0473837
0.0498054 0.0498029
0.0523842 0.0522535
0.0551641 0.0547962
0.0571359 0.0568341
0.058404 0.058225
0.057636 0.0575058
0.0568689 0.0567178
0.0568305 0.0567398
0.0564923 0.0563479
0.0557452 0.0556397
0.0554756 0.0554407
0.0555849 0.0554073
0.0563271 0.055678
0.0574018 0.0562778
0.0578594 0.0564111
0.058321 0.0567035
0.0599756 0.0581802
0.000799659 1.18735e-05
0.00190832 0.00126316
0.00403028 0.00339846
0.00677695 0.00609713
0.00956488 0.00883922
0.0125037 0.0118716
0.0149749 0.014505
0.0180099 0.0176779
0.0208199 0.0208333
0.0239788 0.0245144
0.0274068 0.0283339
0.0301597 0.0313898
0.0326803 0.0339944
0.0347615 0.0359247
0.035937 0.0369674
0.0375247 0.0384482
0.0386771 0.0394776
0.0390704 0.0399114
0.0394865 0.0402342
0.0410537 0.0416194
0.0416891 0.0420468
0.0422853 0.0426028
0.0424864 0.0425933
0.0432066 0.0431585
0.0439297 0.043869
0.0447738 0.0446994
0.045874 0.045625
0.0470474 0.0466241
0.0476698 0.0474366
0.0483235 0.0482639
0.0489248 0.0489653
0.0511461 0.0511811
0.0537507 0.0538086
0.056467 0.0565149
0.0593242 0.0592643
0.0624027 0.0621055
0.064585 0.0643891
0.065948 0.0658966
0.064953 0.0649311
0.0639741 0.0639541
0.0638777 0.0639662
0.0635435 0.0635643
0.062742 0.0628045
0.0624094 0.0625814
0.0624472 0.0624676
0.0632052 0.0627008
0.0644372 0.063408
0.0649433 0.0635461
0.0654214 0.0638298
0.0673352 0.0655362
0.00315066 0.00243614
0.00462934 0.00394073
0.00744009 0.00661488
0.0110865 0.0100834
0.0147542 0.0136028
0.0184481 0.0173281
0.0215145 0.020573
0.0253143 0.0244954
0.0288942 0.0283958
0.0328363 0.0328797
0.0371183 0.0375199
0.0404381 0.041066
0.0432242 0.0438789
0.0454188 0.0458834
0.0464204 0.0467767
0.0481707 0.0484719
0.049388 0.0495959
0.0496304 0.0499083
0.0498588 0.0501648
0.0514382 0.0516164
0.0517811 0.051771
0.0522163 0.0521787
0.0523162 0.052093
0.0530062 0.0526659
0.0536565 0.0533485
0.0545865 0.0542954
0.0559234 0.0554412
0.0573748 0.0568146
0.0581936 0.0579714
0.0591293 0.0591627
0.0599899 0.0601743
0.0627843 0.062945
0.0660767 0.0662012
0.0692875 0.0693102
0.0723471 0.0722145
0.0755041 0.0750573
0.0775639 0.0772928
0.0787048 0.0786385
0.0770495 0.0770469
0.075499 0.0755361
0.0752666 0.0753903
0.0749249 0.0749477
0.0740109 0.0741246
0.0738184 0.074115
0.0739864 0.0741929
0.075121 0.0748327
0.0768583 0.0760535
0.077692 0.0765823
0.0782073 0.0769318
0.0802847 0.0788498
0.00938088 0.00843501
0.00998911 0.00923684
0.0114547 0.0108683
0.0135595 0.013173
0.0165258 0.016519
0.01975 0.020089
0.0230447 0.0236516
0.0268956 0.0276645
0.0309629 0.0318164
0.0348796 0.0358073
0.0389784 0.0402329
0.0424234 0.0439477
0.0453478 0.0469537
0.0487191 0.0502439
0.0514612 0.052706
0.0532614 0.0538975
0.0553486 0.0555098
0.0565032 0.0560629
0.0579049 0.0571392
0.0595033 0.0583417
0.0601828 0.0587035
0.0604609 0.0589159
0.0611129 0.0593357
0.0615499 0.0595735
0.0631477 0.0609904
0.065339 0.0631369
0.0678651 0.0653373
0.0704932 0.0676497
0.0729706 0.0702381
0.076045 0.0735481
0.0795786 0.077273
0.0803107 0.0781658
0.0803389 0.0784565
0.0784949 0.0769829
0.0767807 0.0755746
0.0745298 0.073241
0.0725471 0.0709441
0.0708126 0.069097
0.0695605 0.0677118
0.0682257 0.0663669
0.0677134 0.0654719
0.0675608 0.0649396
0.0670521 0.0639784
0.0672739 0.063636
0.067884 0.0639202
0.0678261 0.0637255
0.0676276 0.0634739
0.0687762 0.0646439
0.0697255 0.0656932
0.0708693 0.0668287
0.0193073 0.0181511
0.0201099 0.0190234
0.021615 0.0205572
0.0233469 0.0224239
0.0250665 0.0243107
0.0272506 0.0266844
0.0291101 0.0287573
0.0313399 0.0311817
0.0332918 0.0335559
0.0355501 0.0364791
0.0378724 0.0393786
0.0398546 0.0418819
0.0422196 0.0445105
0.0443556 0.046605
0.0459808 0.0480349
0.0476014 0.0494743
0.0490323 0.0505955
0.0500541 0.0514317
0.0509525 0.0520818
0.0527501 0.0535632
0.0539952 0.0544498
0.0550944 0.0553773
0.0554277 0.0555093
0.056137 0.0559681
0.0572402 0.0568063
0.0582293 0.0576921
0.0593025 0.0584054
0.0603671 0.0589989
0.0608418 0.0593327
0.0613723 0.0597849
0.0619031 0.0603084
0.0636405 0.0621623
0.0653667 0.0641116
0.0674688 0.0666102
0.0702094 0.0695672
0.0735634 0.072887
0.0764145 0.0757773
0.0783718 0.0777973
0.0781436 0.0775628
0.0776164 0.0770411
0.0776917 0.0772288
0.0777804 0.0771972
0.0774587 0.0768961
0.0766234 0.0760496
0.0759288 0.0751023
0.0755594 0.074137
0.075594 0.0736373
0.0748568 0.0724985
0.0748311 0.07225
0.0767441 0.0738875
0.00404702 0.00331339
0.0052398 0.00464152
0.00805858 0.00749281
0.0114842 0.0110395
0.0143831 0.0141575
0.0179973 0.0181546
0.0211909 0.0218047
0.0244868 0.0257855
0.0287474 0.0306945
0.0323576 0.0347081
0.0352003 0.0378595
0.0375591 0.0401774
0.0396328 0.0422462
0.0417034 0.0444308
0.0428637 0.0456297
0.0440029 0.0467281
0.0458317 0.0486197
0.0474658 0.0501469
0.0492004 0.0515044
0.051819 0.0538681
0.0540273 0.0557919
0.0574916 0.0587631
0.060994 0.062027
0.0649423 0.066135
0.0688625 0.070039
0.0698601 0.071067
0.0695702 0.0707306
0.0687544 0.0700039
0.0678419 0.0691422
0.068488 0.0698843
0.0692331 0.0712902
0.0688757 0.0714937
0.0687052 0.0719762
0.0691282 0.0728544
0.0691709 0.07322
0.0686889 0.0728884
0.0687527 0.0733176
0.0695185 0.0741054
0.0700011 0.0744124
0.0715901 0.0758072
0.0737915 0.0778974
0.0761855 0.0802748
0.0802424 0.0843038
0.0839297 0.0879097
0.0879908 0.0920682
0.0900359 0.0940886
0.0897927 0.0935285
0.0884652 0.0917216
0.0867492 0.0893284
0.0864236 0.0883924
0.0094446 0.0087521
0.0104461 0.00992612
0.0123972 0.0119003
0.0146028 0.0141303
0.0167189 0.0162871
0.0192181 0.0189086
0.0211708 0.021018
0.0234892 0.0234843
0.0255572 0.0259681
0.0280408 0.0290755
0.030849 0.0324053
0.0333147 0.0352977
0.0361311 0.0383086
0.0388389 0.0409435
0.0410363 0.0429764
0.0433622 0.045092
0.0452142 0.0466885
0.0460544 0.0474625
0.046759 0.048021
0.0484396 0.0494718
0.0492874 0.0500528
0.0502254 0.0508885
0.0505171 0.0508933
0.0511485 0.0512236
0.0521165 0.0519172
0.0531494 0.0528075
0.0544292 0.0537323
0.0556882 0.0546051
0.0565098 0.0554131
0.0571541 0.0561017
0.0577189 0.0567927
0.0596432 0.0588414
0.0617384 0.061073
0.0641308 0.0636344
0.0670453 0.066538
0.0704446 0.0697596
0.0734005 0.0728214
0.0755045 0.0749915
0.0752067 0.0747455
0.0746056 0.0742077
0.0746816 0.0744667
0.0744542 0.0741313
0.073863 0.0734839
0.0731151 0.0727133
0.0724102 0.0718072
0.072093 0.0709836
0.0724434 0.0708234
0.0721645 0.070162
0.0725332 0.0703185
0.0748346 0.0723734
0.00477118 0.00360729
0.00589639 0.00488171
0.00794466 0.00700388
0.0105465 0.00968785
0.0131683 0.0124103
0.0160303 0.0154775
0.0183623 0.0181064
0.0213745 0.0213774
0.0240769 0.0245381
0.0271449 0.0282761
0.0304414 0.0321369
0.0331387 0.0352785
0.0358329 0.0381346
0.0382393 0.0404424
0.0398567 0.0418968
0.0416851 0.0435727
0.0430903 0.0448034
0.0437883 0.0455121
0.0444851 0.0460892
0.0463534 0.0477076
0.0473064 0.0484
0.0482094 0.0492404
0.0485781 0.0493446
0.0494014 0.0499091
0.0502671 0.0506651
0.0511231 0.0515068
0.0522513 0.0523566
0.0535147 0.0533192
0.0541696 0.0540707
0.0546612 0.0547071
0.055224 0.055365
0.0573616 0.0575842
0.0596881 0.0600486
0.0622678 0.0628912
0.0652847 0.0660083
0.068855 0.0694057
0.0715346 0.0722194
0.073167 0.0740091
0.0722573 0.073155
0.0713589 0.07223
0.0713406 0.0723072
0.0711413 0.0719791
0.0704633 0.0713163
0.069878 0.0708166
0.0696451 0.0703473
0.0700381 0.0701126
0.0709806 0.0704505
0.0711435 0.0701531
0.0716212 0.0703905
0.0738916 0.0723615
0.0110634 0.00951792
0.0121095 0.0107004
0.0139962 0.0126531
0.0163094 0.0150989
0.018602 0.0175646
0.0211764 0.0203976
0.0232177 0.0227946
0.0259092 0.0258196
0.0282411 0.0286826
0.0309168 0.0321054
0.0337747 0.0356153
0.036131 0.0384862
0.0386539 0.0412358
0.0410199 0.0435672
0.0427462 0.0451367
0.0445193 0.046748
0.0459362 0.0479647
0.0467342 0.0487535
0.047519 0.0494333
0.0494088 0.051084
0.0505126 0.0519422
0.0515596 0.0529002
0.052029 0.0531044
0.0528745 0.0536678
0.0538104 0.0544349
0.0546631 0.0552643
0.0557773 0.0560771
0.0570524 0.0569853
0.0577598 0.0576914
0.0581726 0.0581775
0.0587182 0.0587711
0.0606722 0.0608359
0.0626617 0.0630325
0.0649515 0.0657446
0.0678127 0.0688412
0.0713941 0.0723216
0.0741807 0.0752197
0.0758757 0.077042
0.075119 0.0763186
0.074369 0.0755075
0.0744243 0.07565
0.0743465 0.0754255
0.0738445 0.0749083
0.0731568 0.0742446
0.0727418 0.0735763
0.0728798 0.0731107
0.0735217 0.0731565
0.0733822 0.0725601
0.0738054 0.0727418
0.0760729 0.0746637
0.00538992 0.00434728
0.00637705 0.00544801
0.00830509 0.00744105
0.0109324 0.0100997
0.0137161 0.0129018
0.0167633 0.016072
0.0194972 0.018982
0.0227464 0.0223869
0.0257976 0.0258113
0.0291965 0.0297972
0.0327436 0.033765
0.0355561 0.0369479
0.0380771 0.0395799
0.0399255 0.0412525
0.0407588 0.0419322
0.0420964 0.043161
0.0431824 0.0440941
0.0438238 0.0446556
0.0444361 0.0450616
0.0462325 0.0465568
0.0471061 0.0470596
0.0477466 0.0475806
0.0478389 0.0474954
0.0485933 0.04811
0.0494925 0.048913
0.0504578 0.0498367
0.051501 0.0506698
0.0525361 0.0514748
0.0528507 0.0519414
0.0535533 0.0528117
0.0541865 0.0535325
0.0565521 0.0559051
0.0593241 0.0586994
0.0622159 0.0616524
0.0653093 0.0647325
0.0686221 0.0679138
0.0709754 0.070386
0.0724175 0.0719598
0.0713973 0.0709629
0.0703394 0.0699148
0.0701852 0.0698556
0.0700194 0.0696483
0.0692557 0.0690138
0.0687088 0.0686502
0.0685711 0.0683482
0.0691479 0.068329
0.0702541 0.0688886
0.0704458 0.0687221
0.0705999 0.068663
0.0725066 0.0703684
0.0127181 0.0109992
0.0135848 0.0119874
0.0152867 0.0137778
0.0176337 0.0162158
0.0201727 0.0188162
0.0230167 0.0218005
0.0256727 0.0246304
0.0287674 0.0278839
0.0317041 0.0311792
0.0349517 0.035006
0.0382694 0.0387486
0.040871 0.0417338
0.0431787 0.0441597
0.0447205 0.0455431
0.0452506 0.045944
0.0462632 0.0468708
0.0470747 0.0475294
0.0477141 0.0480408
0.0483448 0.0483868
0.0500795 0.0497668
0.0510216 0.0503018
0.0516129 0.0507278
0.0516397 0.0506117
0.0523193 0.0511576
0.0532474 0.0519673
0.0541901 0.0528487
0.0551069 0.0535568
0.0559582 0.0541461
0.0559978 0.0543071
0.0566466 0.0550917
0.0571995 0.0557212
0.0594276 0.0579647
0.0620586 0.0606162
0.0647961 0.0634987
0.067749 0.0665059
0.0709189 0.0696258
0.0731416 0.0719808
0.0745122 0.0735054
0.0735973 0.0726169
0.0725836 0.0716216
0.0723961 0.0715148
0.072355 0.0714169
0.0716545 0.0708838
0.0710026 0.0704462
0.0708117 0.0700806
0.0712555 0.0699405
0.0721354 0.0703217
0.072072 0.0699159
0.0719637 0.06963
0.0735878 0.0710849
0.01176 0.0101708
0.012753 0.0113177
0.0145712 0.0132098
0.0166666 0.0154291
0.0186987 0.0176049
0.0210914 0.0202061
0.022945 0.0223231
0.0252916 0.0249159
0.027313 0.0274219
0.0296937 0.0305137
0.0323202 0.0337612
0.03459 0.0365371
0.0372209 0.0394115
0.0398063 0.0419611
0.0418907 0.0438812
0.0439794 0.0457848
0.0456855 0.0472415
0.0465749 0.0480749
0.0473809 0.0487507
0.0491822 0.0503193
0.0502313 0.0511158
0.0513162 0.0521125
0.0517463 0.0522984
0.0524914 0.0527637
0.0534823 0.0535283
0.0544515 0.0544038
0.0556904 0.0552711
0.0569854 0.0561396
0.0577881 0.0568889
0.0583125 0.0574155
0.0588769 0.0580334
0.0607325 0.0600186
0.062602 0.0621037
0.0648067 0.064649
0.0676306 0.067609
0.0711101 0.0709732
0.0740367 0.0740029
0.0759966 0.0760465
0.0755904 0.0756676
0.0750201 0.0750987
0.0751641 0.0753596
0.0751116 0.0751423
0.0746903 0.0746418
0.0739452 0.0738608
0.0733006 0.0729547
0.0730551 0.0721581
0.0733659 0.0719343
0.0729985 0.071149
0.0733459 0.0712695
0.0756272 0.073232
0.01025 0.00955738
0.0110636 0.0104354
0.0128 0.0123776
0.0147978 0.0144898
0.0171646 0.016944
0.0201499 0.0199851
0.0233427 0.0231946
0.0264443 0.0263545
0.0294417 0.029578
0.0316486 0.0319781
0.0339406 0.0343713
0.0370233 0.0373236
0.0411169 0.0412579
0.0442668 0.0444098
0.047177 0.0474999
0.0506866 0.0512141
0.0520132 0.0526953
0.0533584 0.0540614
0.0545261 0.0552745
0.0559312 0.056638
0.0574985 0.0582158
0.0590926 0.0599592
0.0612436 0.0621324
0.0627392 0.0638279
0.0640546 0.0655455
0.0649467 0.0666103
0.0658047 0.067463
0.066246 0.0678958
0.0658906 0.0672549
0.0657081 0.0669323
0.0661739 0.0674631
0.0655984 0.0670948
0.065037 0.0665093
0.06558 0.06678
0.0656422 0.0664997
0.0656657 0.0661068
0.0669992 0.0669472
0.0674853 0.067116
0.0675431 0.066814
0.0677174 0.0668723
0.0676301 0.0667598
0.0686623 0.0675988
0.0684391 0.0675535
0.0687941 0.0682414
0.0696869 0.0695744
0.0719693 0.0721193
0.0727993 0.0729881
0.0710569 0.0712949
0.0705159 0.070677
0.0706358 0.0703221
0.02403 0.0236924
0.0249185 0.0246454
0.0267157 0.0264715
0.0286933 0.0284184
0.0305131 0.0301665
0.031923 0.0314577
0.0328554 0.0321722
0.0338288 0.0329634
0.0353388 0.0342638
0.0371216 0.0359888
0.0386502 0.0375342
0.0395935 0.0385594
0.040558 0.0395946
0.041286 0.0403908
0.0428191 0.041829
0.0444351 0.0433567
0.0459135 0.0447867
0.0467775 0.0455541
0.0472995 0.0461368
0.0481651 0.0472055
0.0484598 0.047691
0.0488775 0.048146
0.0496457 0.0489335
0.050683 0.049933
0.0516991 0.0508383
0.0519934 0.0511106
0.0511769 0.0503259
0.0503974 0.0497636
0.0505708 0.0500672
0.051232 0.0508831
0.052003 0.0518522
0.0530681 0.0528656
0.0546586 0.0543584
0.0565202 0.0560457
0.0586691 0.0580723
0.0600559 0.0593832
0.0613582 0.0605878
0.0631801 0.0622999
0.0642651 0.0634709
0.0646067 0.0639116
0.0641903 0.0635723
0.0632433 0.0625656
0.0626291 0.0619383
0.0629133 0.0621988
0.0643818 0.0637161
0.0657679 0.0652898
0.0662832 0.0658742
0.0655748 0.0652415
0.0650851 0.0646618
0.0650252 0.0646076
0.0240314 0.023694
0.0250685 0.0248046
0.0271708 0.0269355
0.0294842 0.0292148
0.0316044 0.0312609
0.0332442 0.0327686
0.0343252 0.0336065
0.0354576 0.0345448
0.0372192 0.0360809
0.0392918 0.0380815
0.0410859 0.0399232
0.0421885 0.0411416
0.043309 0.042354
0.0441292 0.0432636
0.0458758 0.0449136
0.0477103 0.0466512
0.0493786 0.0482599
0.0503219 0.0491086
0.050884 0.049771
0.0518668 0.0510008
0.052216 0.0515561
0.0527256 0.0521207
0.0536474 0.0530787
0.0548741 0.054267
0.0560784 0.055367
0.0564129 0.0556943
0.0554335 0.0547472
0.0545072 0.0540898
0.0546749 0.0544322
0.0554162 0.0553666
0.0562881 0.0564485
0.0574957 0.0576327
0.0593079 0.0593517
0.0613983 0.0612857
0.0638308 0.0636246
0.0654233 0.0651597
0.0669347 0.066571
0.0690568 0.068602
0.0703105 0.069974
0.0706425 0.0704317
0.0701299 0.0699799
0.0690283 0.0688136
0.0682988 0.0680574
0.0686656 0.0684029
0.0703886 0.0702011
0.0720171 0.0720432
0.0726336 0.072733
0.0717945 0.0719601
0.0712531 0.0712841
0.0712578 0.071239
0.0240328 0.0236951
0.0251689 0.0248261
0.0277976 0.0273068
0.0313432 0.0307198
0.0342662 0.0334543
0.0361278 0.035071
0.0381852 0.0369342
0.0403381 0.0390032
0.0427849 0.0414348
0.0453783 0.044062
0.0472516 0.0460267
0.0492953 0.0481926
0.0506347 0.0495376
0.0542058 0.0530897
0.0577499 0.0566926
0.0610056 0.060225
0.0640866 0.0635558
0.0661452 0.0657912
0.0678361 0.0675132
0.0702593 0.0699441
0.0718899 0.0715723
0.072456 0.0722504
0.0726533 0.0724176
0.0732047 0.0729276
0.0732798 0.0732114
0.0724599 0.0724975
0.0722488 0.072486
0.0730864 0.0735402
0.0725467 0.0729487
0.0724022 0.0725624
0.0736075 0.0735563
0.0753073 0.0749755
0.076936 0.0764378
0.0780834 0.0775227
0.0800764 0.0797292
0.0805273 0.080336
0.0809186 0.080762
0.0809847 0.0808273
0.0805253 0.0803081
0.0808345 0.0803666
0.0807836 0.0799605
0.0793651 0.0779544
0.0767384 0.0747896
0.0744932 0.0721648
0.0727209 0.0702298
0.0737686 0.0711209
0.0759581 0.073217
0.0771992 0.0746408
0.0788837 0.0766505
0.080924 0.0791936
0.00759769 0.00771055
0.00841425 0.00855849
0.0102939 0.010417
0.0126587 0.012677
0.0146406 0.0146037
0.0162902 0.0162348
0.0176907 0.0177503
0.0195595 0.0197291
0.0214883 0.0217049
0.0240081 0.0243451
0.0265507 0.0269179
0.0282166 0.028554
0.0293967 0.0297426
0.0298876 0.030257
0.0300855 0.0305248
0.0308084 0.0314478
0.0319068 0.03273
0.0327047 0.0338431
0.0330167 0.0343471
0.0339231 0.0354025
0.0345377 0.0359747
0.0354973 0.0367013
0.0366234 0.0374385
0.0377699 0.0382053
0.0383422 0.0385666
0.038509 0.038844
0.0393579 0.0398708
0.0398856 0.0404932
0.0409604 0.0419751
0.041315 0.0425352
0.0406604 0.0419154
0.0404307 0.0417949
0.0408538 0.0423756
0.0418287 0.0435758
0.0437146 0.0456556
0.0461182 0.048103
0.0478333 0.0496004
0.0486346 0.0502688
0.0481891 0.0497231
0.0475361 0.0489257
0.047287 0.0487413
0.046944 0.048588
0.0470655 0.0488102
0.0476054 0.049324
0.0484588 0.0501014
0.0498486 0.0515556
0.0510186 0.0526244
0.0519745 0.0534582
0.0532722 0.0546412
0.0539681 0.0554557
0.00760111 0.00771355
0.00868804 0.00882916
0.0111936 0.0112933
0.0143503 0.0143167
0.01701 0.0169045
0.0192325 0.0191164
0.021142 0.0212107
0.0236647 0.0239211
0.0262601 0.0265578
0.0296486 0.0301336
0.0330808 0.0336181
0.0353 0.0357924
0.0368449 0.0373518
0.0373868 0.0379462
0.0374746 0.038172
0.0382864 0.0392593
0.0396819 0.040869
0.0407035 0.0423071
0.0410918 0.0429852
0.0422772 0.0443954
0.0430673 0.0451134
0.0443497 0.0460857
0.0458395 0.0470934
0.0473309 0.0481447
0.0480335 0.0485841
0.0482008 0.0488608
0.0493331 0.0502247
0.0500822 0.0510901
0.0515854 0.0530909
0.0520411 0.053838
0.0510848 0.0528801
0.050649 0.0525663
0.0511493 0.053256
0.0523712 0.0547876
0.0548979 0.057553
0.0582322 0.0609579
0.0606882 0.063093
0.0617464 0.0639823
0.061082 0.0631689
0.0599951 0.0618627
0.0595702 0.0615503
0.0591622 0.0613783
0.0594479 0.0617875
0.0602865 0.0625867
0.0615271 0.0637388
0.0633763 0.0656917
0.0648818 0.0670324
0.0660796 0.0680148
0.0677184 0.0695456
0.0685631 0.0706124
