-3.88353 -3.88355
-3.90002 -3.89995
-3.85719 -3.85741
-3.82758 -3.82786
-3.86537 -3.86571
-3.91355 -3.91369
-3.84372 -3.8435
-3.85105 -3.85098
-3.9238 -3.92385
-3.84646 -3.84574
-3.86538 -3.86547
-3.80154 -3.80132
-3.85898 -3.85912
-3.84428 -3.8449
-3.81723 -3.81756
-3.8564 -3.85705
-3.85633 -3.85644
-3.89405 -3.89419
-3.85201 -3.85179
-3.83561 -3.83573
-3.88597 -3.88585
-3.84759 -3.84806
-3.9019 -3.90161
-3.90341 -3.90368
-3.90984 -3.91009
-3.81959 -3.81958
-3.81025 -3.81034
-3.9204 -3.92046
-3.85233 -3.85263
-3.87159 -3.87148
-3.85525 -3.8557
-3.87699 -3.87701
-3.83983 -3.83937
-3.85569 -3.85587
-3.86631 -3.86589
-3.83783 -3.83778
-3.90297 -3.90278
-3.85497 -3.85419
-3.82155 -3.82184
-3.89712 -3.89704
-3.91146 -3.9114
-3.88058 -3.88076
-3.82518 -3.82513
-3.9279 -3.92798
-3.82825 -3.82916
-3.85818 -3.85838
-3.83032 -3.83068
-3.86144 -3.86157
-3.83711 -3.83693
-3.82569 -3.82544
-3.87806 -3.87819
-3.87483 -3.87483
-3.87338 -3.87329
-3.8709 -3.87109
-3.89477 -3.89486
-3.84367 -3.84453
-3.84255 -3.84338
-3.85152 -3.85228
-3.8948 -3.89501
-3.86739 -3.86712
-3.91274 -3.91283
-3.92046 -3.92061
-3.87125 -3.87161
-3.90971 -3.90985
-3.91159 -3.91159
-3.82122 -3.82093
-3.83379 -3.83332
-3.89815 -3.89852
-3.90421 -3.90403
-3.79059 -3.79006
-3.83282 -3.83178
-3.81084 -3.8101
-3.93043 -3.93051
-3.80905 -3.80833
-3.8149 -3.8151
-3.87429 -3.87481
-3.84223 -3.84317
-3.92744 -3.92748
-3.89714 -3.8972
-3.84625 -3.84643
-3.82802 -3.82782
-3.84833 -3.84762
-3.82236 -3.82308
-3.91053 -3.91056
-3.80728 -3.80681
-3.90166 -3.90167
-3.81966 -3.82012
-3.83187 -3.83243
-3.82106 -3.82058
-3.81666 -3.81686
-3.87371 -3.87363
-3.8538 -3.85373
-3.81977 -3.81984
-3.83931 -3.83891
-3.90483 -3.90491
-3.84885 -3.84944
-3.88625 -3.88627
-3.86025 -3.86027
-3.85056 -3.85033
-3.85128 -3.85142
-3.85338 -3.85361
-3.925 -3.92508
-3.85062 -3.85096
-3.86612 -3.86619
-3.84866 -3.84888
-3.82763 -3.8272
-3.8541 -3.85385
-3.90905 -3.90913
-3.91655 -3.9167
-3.88148 -3.88177
-3.89927 -3.899
-3.86128 -3.86101
-3.82973 -3.82952
-3.90121 -3.90129
-3.88003 -3.88055
-3.88916 -3.88954
-3.80073 -3.80032
-3.81965 -3.81924
-3.90489 -3.90484
-3.83243 -3.83327
-3.9209 -3.92089
-3.89743 -3.89729
-3.84713 -3.84785
-3.79996 -3.79931
-3.90021 -3.90004
-3.83086 -3.83102
-3.82964 -3.82918
-3.83736 -3.83771
-3.88374 -3.88386
-3.9117 -3.91195
-3.85196 -3.85184
-3.88872 -3.88886
-3.899 -3.89888
-3.92836 -3.92841
-3.83661 -3.83685
-3.92665 -3.92672
-3.8065 -3.80685
-3.83599 -3.83632
-3.91437 -3.91443
-3.89847 -3.89863
-3.83942 -3.83944
-3.92554 -3.92562
-3.92889 -3.92892
-3.86933 -3.86922
-3.83403 -3.83369
-3.79552 -3.79533
-3.83386 -3.83408
-3.83767 -3.83829
-3.80892 -3.80818
-3.84907 -3.84889
-3.83794 -3.83775
-3.84825 -3.84857
-3.87468 -3.87465
-3.91247 -3.91268
-3.8323 -3.8322
-3.9006 -3.90066
-3.91964 -3.91962
-3.85172 -3.85192
-3.89801 -3.89793
-3.8293 -3.82923
-3.83437 -3.83342
-3.80356 -3.80326
-3.91779 -3.91796
-3.92664 -3.92669
-3.83062 -3.83004
-3.92339 -3.92348
-3.88767 -3.88762
-3.83434 -3.83388
-3.88119 -3.8812
-3.92548 -3.92556
-3.86674 -3.86699
-3.87604 -3.87568
-3.89091 -3.89104
-3.85019 -3.85051
-3.84853 -3.84805
-3.88026 -3.88051
-3.85955 -3.85935
-3.91389 -3.91411
-3.81881 -3.81855
-3.90778 -3.90782
-3.91764 -3.91768
-3.92028 -3.92022
-3.91849 -3.9185
-3.89218 -3.89191
-3.90785 -3.90787
-3.82651 -3.826
-3.89834 -3.89875
-3.91622 -3.91626
-3.91826 -3.91831
-3.85965 -3.8598
-3.79264 -3.79288
-3.89391 -3.89377
-3.82254 -3.822
-3.8461 -3.84622
-3.93073 -3.93083
-3.79686 -3.79712
-3.89056 -3.89063
-3.81007 -3.80952
-3.84272 -3.84262
-3.85216 -3.85208
-3.84853 -3.84873
-3.91002 -3.91007
-3.83082 -3.83091
-3.82147 -3.82194
-3.82984 -3.82956
-3.83719 -3.83749
-3.83988 -3.84053
-3.86186 -3.86173
-3.83911 -3.83838
-3.84199 -3.8416
-3.88911 -3.88912
-3.79096 -3.79087
-3.86353 -3.8634
-3.82924 -3.82929
-3.84836 -3.84789
-3.87646 -3.87671
-3.80659 -3.80658
-3.84378 -3.84389
-3.89152 -3.89166
-3.89518 -3.89531
-3.9096 -3.90973
-3.90241 -3.90241
-3.85152 -3.85171
-3.90406 -3.90397
-3.87884 -3.87889
-3.82576 -3.82457
-3.89514 -3.89528
-3.88832 -3.88799
-3.86711 -3.86716
-3.82583 -3.82592
-3.91652 -3.91653
-3.90457 -3.9047
-3.84261 -3.84258
-3.84037 -3.84039
-3.84148 -3.84109
-3.82862 -3.82824
-3.8159 -3.81689
-3.91735 -3.91757
-3.88349 -3.88338
-3.87536 -3.87522
-3.90737 -3.90738
-3.82521 -3.82517
-3.82544 -3.82574
-3.88765 -3.88743
-3.87182 -3.87183
-3.89574 -3.89609
-3.82809 -3.82782
-3.81619 -3.81609
-3.87103 -3.87103
-3.87455 -3.87476
-3.80057 -3.80037
-3.83838 -3.83826
-3.87047 -3.87043
-3.82433 -3.82412
-3.82703 -3.82723
-3.92952 -3.92958
-3.79311 -3.79228
-3.84336 -3.84407
-3.87039 -3.87016
-3.92875 -3.92881
-3.88793 -3.88816
-3.9212 -3.92123
-3.86945 -3.86994
-3.92904 -3.92913
-3.92015 -3.92027
-3.83915 -3.8393
-3.81651 -3.81588
-3.82992 -3.82915
-3.84643 -3.84654
-3.81947 -3.81988
-3.86377 -3.86388
-3.87817 -3.87807
-3.89444 -3.89448
-3.8567 -3.8569
-3.87613 -3.87612
-3.8378 -3.83734
-3.85962 -3.85949
-3.80737 -3.80682
-3.83842 -3.83847
-3.86802 -3.86798
-3.83617 -3.83566
-3.91951 -3.91956
-3.88781 -3.88819
-3.87285 -3.87288
-3.88057 -3.88035
-3.81723 -3.8169
-3.84669 -3.84655
-3.83576 -3.83571
-3.82169 -3.82132
-3.84617 -3.84652
-3.84569 -3.84572
-3.82692 -3.82682
-3.8211 -3.82083
-3.84406 -3.8437
-3.91434 -3.91456
-3.82052 -3.82056
-3.88719 -3.88741
-3.84945 -3.84997
-3.84667 -3.84667
-3.81667 -3.81608
-3.84589 -3.84624
-3.89644 -3.8965
-3.85768 -3.85757
-3.90209 -3.90209
-3.89589 -3.89596
-3.85424 -3.85386
-3.91608 -3.91633
-3.81671 -3.81641
-3.85437 -3.85428
-3.87954 -3.88008
-3.84728 -3.84684
-3.84166 -3.84201
-3.83765 -3.83857
-3.91309 -3.91304
-3.83046 -3.8311
-3.93175 -3.93182
-3.86756 -3.86763
-3.89984 -3.89989
-3.84987 -3.85047
-3.92273 -3.92282
-3.87851 -3.87898
-3.90441 -3.9045
-3.8077 -3.80758
-3.82935 -3.82851
-3.80569 -3.8057
-3.83939 -3.83974
-3.88241 -3.88233
-3.81045 -3.81012
-3.82491 -3.82482
-3.90071 -3.90068
-3.84146 -3.84158
-3.80948 -3.80931
-3.91768 -3.91778
-3.82038 -3.82032
-3.79952 -3.7984
-3.84869 -3.84845
-3.85542 -3.85511
-3.82923 -3.82919
-3.82544 -3.82606
-3.84427 -3.84351
-3.87334 -3.87366
-3.90174 -3.90192
-3.89759 -3.89782
-3.84168 -3.84205
-3.83203 -3.83209
-3.89631 -3.89632
-3.89896 -3.89931
-3.83905 -3.83877
-3.89464 -3.89464
-3.84614 -3.84608
-3.78873 -3.78799
-3.86839 -3.86818
-3.87045 -3.87034
-3.8448 -3.84408
-3.8462 -3.84632
-3.86954 -3.86987
-3.8254 -3.82509
-3.87893 -3.8788
-3.79617 -3.79473
-3.91041 -3.91046
-3.87971 -3.8797
-3.91487 -3.9148
-3.85533 -3.85524
-3.89187 -3.89193
-3.85001 -3.84999
-3.84716 -3.84765
-3.86336 -3.86358
-3.9051 -3.9053
-3.89752 -3.89779
-3.80897 -3.80999
-3.93269 -3.93276
-3.83685 -3.83728
-3.83738 -3.8378
-3.8307 -3.83042
-3.83551 -3.83533
-3.81423 -3.814
-3.84766 -3.84732
-3.83944 -3.83981
-3.87385 -3.87355
-3.8169 -3.81687
-3.85505 -3.85496
-3.85722 -3.85737
-3.85259 -3.85212
-3.88683 -3.88688
-3.8852 -3.88535
-3.8901 -3.89023
-3.92436 -3.92447
-3.86071 -3.86047
-3.86815 -3.86858
-3.84706 -3.84687
-3.8253 -3.82512
-3.88144 -3.88139
-3.83847 -3.8385
-3.84265 -3.84265
-3.90313 -3.9032
-3.85092 -3.85051
-3.8756 -3.87566
-3.83698 -3.83717
-3.91257 -3.91276
-3.84869 -3.849
-3.88896 -3.88915
-3.80708 -3.80737
-3.9124 -3.91258
-3.87869 -3.87854
-3.85427 -3.85416
-3.8285 -3.82884
-3.85987 -3.86014
-3.80153 -3.80128
-3.87247 -3.87252
-3.93154 -3.93162
-3.8709 -3.8709
-3.8171 -3.81735
-3.90171 -3.90174
-3.84461 -3.84513
-3.87487 -3.87512
-3.92198 -3.92207
-3.82819 -3.82775
-3.82542 -3.82534
-3.88578 -3.88591
-3.84636 -3.84629
-3.83971 -3.83911
-3.88424 -3.88438
-3.90294 -3.90302
-3.81461 -3.81498
-3.92905 -3.9291
-3.82851 -3.82816
-3.85585 -3.85566
-3.82774 -3.8273
-3.80001 -3.79922
-3.87806 -3.8783
-3.82611 -3.82549
-3.79919 -3.79915
-3.83594 -3.8371
-3.86651 -3.86686
-3.92729 -3.92735
-3.88453 -3.88471
-3.84927 -3.84887
-3.92276 -3.92286
-3.80127 -3.80043
-3.90884 -3.90901
-3.84834 -3.84877
-3.88963 -3.88983
-3.8453 -3.84458
-3.86115 -3.86068
-3.91209 -3.9121
-3.86344 -3.86376
-3.89971 -3.90009
-3.8062 -3.80606
-3.79366 -3.79362
-3.85671 -3.8566
-3.91751 -3.91747
-3.87412 -3.87433
-3.90294 -3.90288
-3.8558 -3.85589
-3.92529 -3.92534
-3.80648 -3.80629
-3.89859 -3.89863
-3.84262 -3.84232
-3.92138 -3.92147
-3.90954 -3.90953
-3.88641 -3.88649
-3.83145 -3.83108
-3.8583 -3.85818
-3.86795 -3.86776
-3.80396 -3.8044
-3.84216 -3.84306
-3.81846 -3.81755
-3.81457 -3.81462
-3.82718 -3.82767
-3.87035 -3.87039
-3.86452 -3.86462
-3.81286 -3.81284
-3.86026 -3.86096
-3.83671 -3.8365
-3.80805 -3.80754
-3.86366 -3.86389
-3.77382 -3.77403
-3.8237 -3.82376
-3.82826 -3.82834
-3.82128 -3.82102
-3.911 -3.91103
-3.88106 -3.88112
-3.88733 -3.88719
-3.82863 -3.82884
-3.81377 -3.81351
-3.83266 -3.83247
-3.84952 -3.84949
-3.83319 -3.83364
-3.87482 -3.87483
-3.85867 -3.85886
-3.80759 -3.80708
-3.91327 -3.91324
-3.86523 -3.86494
-3.93161 -3.93168
-3.84884 -3.8487
-3.88208 -3.88189
-3.8763 -3.87643
-3.83492 -3.835
-3.88501 -3.88513
-3.83374 -3.83395
-3.87403 -3.87398
-3.81969 -3.81943
-3.86888 -3.86858
-3.87195 -3.87181
-3.82601 -3.82528
-3.84577 -3.84581
-3.90282 -3.90273
-3.79789 -3.79765
-3.90423 -3.90427
-3.93185 -3.93192
-3.89583 -3.8957
-3.84491 -3.84516
-3.82124 -3.82181
-3.83935 -3.83941
-3.91477 -3.91465
-3.90586 -3.90596
-3.82938 -3.82914
-3.90033 -3.90059
-3.87148 -3.8717
-3.84044 -3.84031
-3.86415 -3.86389
-3.82315 -3.82343
-3.84344 -3.84354
-3.802 -3.80113
-3.89207 -3.8921
-3.87966 -3.87967
-3.84656 -3.84672
-3.82605 -3.82552
-3.84982 -3.84938
-3.87399 -3.87414
-3.84042 -3.84
-3.90934 -3.9096
-3.82108 -3.82172
-3.79787 -3.79749
-3.8334 -3.83369
-3.92399 -3.92406
-3.88732 -3.88748
-3.80218 -3.80206
-3.84255 -3.84266
-3.83256 -3.83342
-3.85202 -3.85181
-3.90384 -3.90414
-3.85058 -3.85033
-3.82063 -3.82114
-3.81385 -3.81358
-3.92786 -3.92793
-3.90797 -3.90778
-3.87464 -3.87484
-3.91125 -3.91122
-3.91679 -3.91677
-3.8341 -3.8341
-3.8374 -3.83763
-3.88656 -3.88648
-3.83583 -3.83617
-3.85561 -3.85598
-3.8872 -3.88737
-3.8537 -3.85402
-3.85526 -3.85521
-3.86679 -3.86696
-3.85409 -3.8536
-3.88955 -3.88954
-3.83612 -3.83634
-3.86676 -3.86715
-3.86813 -3.86761
-3.83889 -3.83879
-3.8249 -3.82475
-3.82721 -3.82663
-3.86596 -3.86615
-3.91464 -3.91478
-3.83725 -3.83651
-3.90543 -3.90575
-3.83116 -3.83099
-3.831 -3.83135
-3.84234 -3.84233
-3.85283 -3.85325
-3.83703 -3.83786
-3.81012 -3.80948
-3.81234 -3.81215
-3.89341 -3.89345
-3.8925 -3.89265
-3.81755 -3.81773
-3.82294 -3.82184
-3.89935 -3.89936
-3.8477 -3.84714
-3.84947 -3.84928
-3.91831 -3.91823
-3.85421 -3.85491
-3.91232 -3.91238
-3.88207 -3.88212
-3.90733 -3.9076
-3.87505 -3.87522
-3.89 -3.8899
-3.857 -3.85696
-3.83043 -3.82985
-3.87352 -3.87336
-3.83108 -3.83097
-3.82117 -3.82057
-3.82012 -3.8205
-3.83282 -3.83336
-3.8866 -3.88661
-3.88339 -3.88327
-3.84519 -3.84417
-3.84556 -3.84705
-3.90998 -3.91003
-3.82288 -3.82241
-3.90724 -3.90728
-3.81577 -3.81607
-3.91236 -3.91241
-3.89677 -3.89687
-3.86519 -3.86467
-3.8815 -3.88166
-3.81671 -3.81679
-3.80171 -3.80156
-3.85545 -3.85541
-3.82258 -3.82268
-3.90534 -3.90558
-3.81473 -3.8142
-3.92425 -3.92429
-3.85199 -3.85219
-3.87378 -3.87409
-3.89859 -3.89856
-3.83382 -3.83406
-3.91344 -3.91328
-3.83454 -3.83433
-3.81381 -3.81301
-3.84352 -3.84303
-3.83621 -3.83539
-3.92911 -3.92921
-3.81312 -3.81307
-3.84687 -3.84732
-3.92965 -3.9297
-3.89921 -3.8994
-3.92522 -3.92533
-3.87141 -3.87127
-3.80776 -3.80678
-3.93145 -3.93153
-3.90892 -3.90895
-3.91121 -3.91145
-3.79366 -3.79386
-3.91813 -3.91834
-3.90724 -3.90731
-3.8164 -3.81604
-3.84014 -3.84033
-3.88379 -3.88359
-3.8953 -3.8955
-3.88622 -3.88631
-3.82988 -3.82974
-3.86826 -3.86826
-3.90185 -3.90202
-3.90999 -3.91008
-3.84591 -3.84703
-3.89665 -3.89675
-3.85885 -3.85905
-3.86263 -3.86274
-3.87044 -3.87051
-3.85679 -3.85746
-3.89948 -3.89917
-3.85501 -3.85539
-3.85794 -3.85846
-3.8474 -3.84709
-3.89146 -3.8916
-3.88641 -3.88645
-3.82801 -3.82765
-3.9157 -3.91559
-3.88685 -3.88698
-3.80812 -3.80854
-3.87219 -3.87228
-3.79689 -3.79706
-3.85886 -3.85926
-3.88473 -3.88486
-3.87892 -3.87941
-3.8256 -3.82546
-3.8326 -3.83321
-3.83949 -3.8393
-3.88035 -3.88001
-3.92261 -3.92269
-3.88753 -3.88776
-3.91384 -3.91391
-3.79475 -3.79445
-3.85556 -3.85535
-3.84132 -3.84192
-3.87098 -3.87123
-3.93139 -3.93147
-3.81624 -3.81642
-3.88425 -3.88409
-3.83843 -3.8383
-3.91589 -3.9158
-3.78754 -3.78638
-3.79554 -3.79519
-3.86494 -3.86469
-3.92306 -3.92302
-3.92611 -3.92615
-3.86177 -3.86146
-3.81277 -3.81324
-3.83878 -3.83874
-3.90642 -3.90673
-3.82819 -3.82808
-3.91249 -3.91268
-3.89394 -3.89398
-3.92782 -3.92788
-3.92416 -3.92425
-3.80315 -3.80366
-3.89953 -3.8994
-3.88542 -3.88544
-3.87982 -3.88
-3.86321 -3.86266
-3.92535 -3.92538
-3.87318 -3.87342
-3.83588 -3.83572
-3.81046 -3.81052
-3.85137 -3.85158
-3.92327 -3.92339
-3.90711 -3.90718
-3.88071 -3.88038
-3.82167 -3.8219
-3.89582 -3.89617
-3.83102 -3.83096
-3.84573 -3.84612
-3.83855 -3.83831
-3.85587 -3.8559
-3.82622 -3.82726
-3.88336 -3.88323
-3.91556 -3.91542
-3.82674 -3.8261
-3.80865 -3.80919
-3.81147 -3.81217
-3.83329 -3.83384
-3.87775 -3.87779
-3.87104 -3.87118
-3.84145 -3.84134
-3.90455 -3.90459
-3.82976 -3.82913
-3.82672 -3.82682
-3.90077 -3.90088
-3.90098 -3.90109
-3.84305 -3.84298
-3.85859 -3.85934
-3.91766 -3.91766
-3.85301 -3.85367
-3.89247 -3.8922
-3.89899 -3.89909
-3.83162 -3.83074
-3.88786 -3.88794
-3.83527 -3.8353
-3.89416 -3.89433
-3.89726 -3.89735
-3.82834 -3.82841
-3.89381 -3.89387
-3.81391 -3.81321
-3.81123 -3.81177
-3.9144 -3.91449
-3.89516 -3.89493
-3.84805 -3.84802
-3.80815 -3.80745
-3.86164 -3.86143
-3.91109 -3.91111
-3.90076 -3.9007
-3.81535 -3.81514
-3.90005 -3.90024
-3.87237 -3.87227
-3.88813 -3.88843
-3.84173 -3.84235
-3.82604 -3.82608
-3.85335 -3.8538
-3.8219 -3.8216
-3.84148 -3.84136
-3.87406 -3.87447
-3.80908 -3.80851
-3.82295 -3.82302
-3.82322 -3.82302
-3.90116 -3.90104
-3.88022 -3.88019
-3.90606 -3.90624
-3.85028 -3.85066
-3.85387 -3.85381
-3.8412 -3.84117
-3.81948 -3.81948
-3.84892 -3.84927
-3.86806 -3.86809
-3.91093 -3.91116
-3.87963 -3.87987
-3.91877 -3.91886
-3.78733 -3.78733
-3.85112 -3.85132
-3.83501 -3.83528
-3.8047 -3.80411
-3.83615 -3.83585
-3.92833 -3.92841
-3.83642 -3.83647
-3.81346 -3.81349
-3.8256 -3.82504
-3.8608 -3.86089
-3.81619 -3.81626
-3.81587 -3.8153
-3.85407 -3.85434
-3.92252 -3.92248
-3.88236 -3.88219
-3.9241 -3.92415
-3.83608 -3.83546
-3.79868 -3.79751
-3.82206 -3.82157
-3.92448 -3.92452
-3.89524 -3.89527
-3.81603 -3.81574
-3.83672 -3.83691
-3.91241 -3.91242
-3.80642 -3.80617
-3.88854 -3.88869
-3.84608 -3.846
-3.89588 -3.89582
-3.85254 -3.85241
-3.9263 -3.92634
-3.896 -3.89594
-3.92903 -3.92908
-3.84269 -3.84327
-3.82075 -3.81949
-3.90901 -3.90916
-3.92655 -3.92661
-3.81459 -3.81433
-3.86591 -3.86581
-3.92985 -3.92989
-3.8387 -3.83817
-3.85865 -3.85825
-3.90627 -3.9064
-3.86645 -3.86631
-3.8195 -3.81999
-3.85709 -3.85723
-3.88291 -3.88271
-3.80862 -3.80798
-3.91755 -3.91771
-3.91556 -3.91567
-3.85682 -3.85589
-3.88685 -3.88712
-3.86853 -3.86888
-3.90716 -3.90743
-3.84124 -3.84107
-3.87052 -3.87011
-3.89317 -3.89338
-3.81316 -3.81259
-3.86699 -3.86689
-3.8685 -3.8683
-3.88615 -3.88605
-3.82778 -3.82741
-3.84656 -3.84785
-3.8115 -3.8117
-3.91059 -3.91084
-3.79703 -3.79738
-3.89653 -3.89662
-3.81349 -3.81346
-3.83926 -3.83897
-3.93089 -3.93099
-3.88682 -3.88652
-3.81089 -3.81039
-3.885 -3.88501
-3.84559 -3.84577
-3.85968 -3.85973
-3.82496 -3.82435
-3.87401 -3.87382
-3.83595 -3.83564
-3.87383 -3.87371
-3.91835 -3.91849
-3.89346 -3.89319
-3.81939 -3.81965
-3.83215 -3.83207
-3.8089 -3.80919
-3.84263 -3.84216
-3.83362 -3.83406
-3.86391 -3.86376
-3.89884 -3.89924
-3.8621 -3.86212
-3.82813 -3.8278
-3.81186 -3.81192
-3.87238 -3.87236
-3.8331 -3.83212
-3.86235 -3.86186
-3.92045 -3.92057
-3.84357 -3.84411
-3.8313 -3.83161
-3.83441 -3.83528
-3.88326 -3.88335
-3.84952 -3.84968
-3.86469 -3.86504
-3.87283 -3.87272
-3.89802 -3.89814
-3.91241 -3.91244
-3.8477 -3.84789
-3.8322 -3.83188
-3.81463 -3.81436
-3.9132 -3.91334
-3.85492 -3.85497
-3.91521 -3.91514
-3.80756 -3.80751
-3.91113 -3.91133
-3.8482 -3.84864
-3.84847 -3.84823
-3.92191 -3.92189
-3.92072 -3.92086
-3.89394 -3.89415
-3.82191 -3.8223
-3.81564 -3.81574
-3.84676 -3.84717
-3.90452 -3.90448
-3.8776 -3.87755
-3.81197 -3.81218
-3.91493 -3.91489
-3.79984 -3.79942
-3.83331 -3.8334
-3.91443 -3.91456
-3.85782 -3.85795
-3.92401 -3.92405
-3.82032 -3.82063
-3.89468 -3.89461
-3.8247 -3.82446
-3.81179 -3.81247
-3.84602 -3.84599
-3.83467 -3.83443
-3.8498 -3.84956
-3.88555 -3.88563
-3.84577 -3.84561
-3.90219 -3.90224
-3.92898 -3.92902
-3.90907 -3.90915
-3.8352 -3.83465
-3.92263 -3.92265
-3.84214 -3.84266
-3.85211 -3.85174
-3.84415 -3.84385
-3.84433 -3.84391
-3.87964 -3.87965
-3.90052 -3.9006
-3.84391 -3.84478
-3.87391 -3.87398
-3.83717 -3.83642
-3.83931 -3.83819
-3.93176 -3.93183
-3.92481 -3.92489
-3.84533 -3.8458
-3.89281 -3.89284
-3.84423 -3.84396
-3.81185 -3.81116
-3.87293 -3.87315
-3.89626 -3.89634
-3.87573 -3.87548
-3.82533 -3.82587
-3.85552 -3.85526
-3.86799 -3.86846
-3.82181 -3.82186
-3.82163 -3.8207
-3.91544 -3.91546
-3.87598 -3.876
-3.89025 -3.89003
-3.83068 -3.83019
-3.85049 -3.85093
-3.84035 -3.83984
-3.83442 -3.83465
-3.90689 -3.9068
-3.84694 -3.84679
-3.92353 -3.92359
-3.85161 -3.85213
-3.88141 -3.88132
-3.90751 -3.90752
-3.85727 -3.85755
-3.92512 -3.9252
-3.8524 -3.85207
-3.92923 -3.92928
-3.88555 -3.88584
-3.93145 -3.93153
-3.87071 -3.87072
-3.87752 -3.87739
-3.8087 -3.80867
-3.80965 -3.80904
-3.91927 -3.91929
-3.86447 -3.86474
-3.89404 -3.894
-3.90568 -3.90571
-3.92777 -3.92784
-3.87893 -3.87882
-3.84014 -3.83979
-3.8234 -3.82259
-3.90071 -3.90076
-3.85262 -3.85238
-3.82275 -3.8229
-3.89104 -3.89075
-3.93092 -3.93103
-3.9129 -3.9129
-3.8831 -3.88304
-3.90744 -3.9075
-3.83408 -3.83387
-3.86759 -3.86749
-3.80377 -3.80442
-3.84505 -3.84478
-3.82404 -3.82372
-3.86182 -3.86175
-3.85778 -3.85796
-3.8321 -3.83227
-3.92894 -3.92896
-3.87605 -3.87584
-3.8403 -3.83996
-3.83728 -3.83753
